Lab 4/simulation/qsim/Lab4.msim.vcd
$comment
	File created using the following command:
		vcd file Lab4.msim.vcd -direction
$end
$date
	Tue Feb 28 17:13:42 2023
$end
$version
	ModelSim Version 10.5b
$end
$timescale
	1ps
$end

$scope module reg8x16_vhd_vec_tst $end
$var wire 1 ! ADD_R1 [2] $end
$var wire 1 " ADD_R1 [1] $end
$var wire 1 # ADD_R1 [0] $end
$var wire 1 $ ADD_R2 [2] $end
$var wire 1 % ADD_R2 [1] $end
$var wire 1 & ADD_R2 [0] $end
$var wire 1 ' ADD_W [2] $end
$var wire 1 ( ADD_W [1] $end
$var wire 1 ) ADD_W [0] $end
$var wire 1 * CLK $end
$var wire 1 + DIN [15] $end
$var wire 1 , DIN [14] $end
$var wire 1 - DIN [13] $end
$var wire 1 . DIN [12] $end
$var wire 1 / DIN [11] $end
$var wire 1 0 DIN [10] $end
$var wire 1 1 DIN [9] $end
$var wire 1 2 DIN [8] $end
$var wire 1 3 DIN [7] $end
$var wire 1 4 DIN [6] $end
$var wire 1 5 DIN [5] $end
$var wire 1 6 DIN [4] $end
$var wire 1 7 DIN [3] $end
$var wire 1 8 DIN [2] $end
$var wire 1 9 DIN [1] $end
$var wire 1 : DIN [0] $end
$var wire 1 ; DOUT1 [15] $end
$var wire 1 < DOUT1 [14] $end
$var wire 1 = DOUT1 [13] $end
$var wire 1 > DOUT1 [12] $end
$var wire 1 ? DOUT1 [11] $end
$var wire 1 @ DOUT1 [10] $end
$var wire 1 A DOUT1 [9] $end
$var wire 1 B DOUT1 [8] $end
$var wire 1 C DOUT1 [7] $end
$var wire 1 D DOUT1 [6] $end
$var wire 1 E DOUT1 [5] $end
$var wire 1 F DOUT1 [4] $end
$var wire 1 G DOUT1 [3] $end
$var wire 1 H DOUT1 [2] $end
$var wire 1 I DOUT1 [1] $end
$var wire 1 J DOUT1 [0] $end
$var wire 1 K DOUT2 [15] $end
$var wire 1 L DOUT2 [14] $end
$var wire 1 M DOUT2 [13] $end
$var wire 1 N DOUT2 [12] $end
$var wire 1 O DOUT2 [11] $end
$var wire 1 P DOUT2 [10] $end
$var wire 1 Q DOUT2 [9] $end
$var wire 1 R DOUT2 [8] $end
$var wire 1 S DOUT2 [7] $end
$var wire 1 T DOUT2 [6] $end
$var wire 1 U DOUT2 [5] $end
$var wire 1 V DOUT2 [4] $end
$var wire 1 W DOUT2 [3] $end
$var wire 1 X DOUT2 [2] $end
$var wire 1 Y DOUT2 [1] $end
$var wire 1 Z DOUT2 [0] $end
$var wire 1 [ EN $end

$scope module i1 $end
$var wire 1 \ gnd $end
$var wire 1 ] vcc $end
$var wire 1 ^ unknown $end
$var wire 1 _ devoe $end
$var wire 1 ` devclrn $end
$var wire 1 a devpor $end
$var wire 1 b ww_devoe $end
$var wire 1 c ww_devclrn $end
$var wire 1 d ww_devpor $end
$var wire 1 e ww_ADD_R1 [2] $end
$var wire 1 f ww_ADD_R1 [1] $end
$var wire 1 g ww_ADD_R1 [0] $end
$var wire 1 h ww_ADD_R2 [2] $end
$var wire 1 i ww_ADD_R2 [1] $end
$var wire 1 j ww_ADD_R2 [0] $end
$var wire 1 k ww_ADD_W [2] $end
$var wire 1 l ww_ADD_W [1] $end
$var wire 1 m ww_ADD_W [0] $end
$var wire 1 n ww_DIN [15] $end
$var wire 1 o ww_DIN [14] $end
$var wire 1 p ww_DIN [13] $end
$var wire 1 q ww_DIN [12] $end
$var wire 1 r ww_DIN [11] $end
$var wire 1 s ww_DIN [10] $end
$var wire 1 t ww_DIN [9] $end
$var wire 1 u ww_DIN [8] $end
$var wire 1 v ww_DIN [7] $end
$var wire 1 w ww_DIN [6] $end
$var wire 1 x ww_DIN [5] $end
$var wire 1 y ww_DIN [4] $end
$var wire 1 z ww_DIN [3] $end
$var wire 1 { ww_DIN [2] $end
$var wire 1 | ww_DIN [1] $end
$var wire 1 } ww_DIN [0] $end
$var wire 1 ~ ww_EN $end
$var wire 1 !! ww_CLK $end
$var wire 1 "! ww_DOUT1 [15] $end
$var wire 1 #! ww_DOUT1 [14] $end
$var wire 1 $! ww_DOUT1 [13] $end
$var wire 1 %! ww_DOUT1 [12] $end
$var wire 1 &! ww_DOUT1 [11] $end
$var wire 1 '! ww_DOUT1 [10] $end
$var wire 1 (! ww_DOUT1 [9] $end
$var wire 1 )! ww_DOUT1 [8] $end
$var wire 1 *! ww_DOUT1 [7] $end
$var wire 1 +! ww_DOUT1 [6] $end
$var wire 1 ,! ww_DOUT1 [5] $end
$var wire 1 -! ww_DOUT1 [4] $end
$var wire 1 .! ww_DOUT1 [3] $end
$var wire 1 /! ww_DOUT1 [2] $end
$var wire 1 0! ww_DOUT1 [1] $end
$var wire 1 1! ww_DOUT1 [0] $end
$var wire 1 2! ww_DOUT2 [15] $end
$var wire 1 3! ww_DOUT2 [14] $end
$var wire 1 4! ww_DOUT2 [13] $end
$var wire 1 5! ww_DOUT2 [12] $end
$var wire 1 6! ww_DOUT2 [11] $end
$var wire 1 7! ww_DOUT2 [10] $end
$var wire 1 8! ww_DOUT2 [9] $end
$var wire 1 9! ww_DOUT2 [8] $end
$var wire 1 :! ww_DOUT2 [7] $end
$var wire 1 ;! ww_DOUT2 [6] $end
$var wire 1 <! ww_DOUT2 [5] $end
$var wire 1 =! ww_DOUT2 [4] $end
$var wire 1 >! ww_DOUT2 [3] $end
$var wire 1 ?! ww_DOUT2 [2] $end
$var wire 1 @! ww_DOUT2 [1] $end
$var wire 1 A! ww_DOUT2 [0] $end
$var wire 1 B! \EN~inputclkctrl_INCLK_bus\ [3] $end
$var wire 1 C! \EN~inputclkctrl_INCLK_bus\ [2] $end
$var wire 1 D! \EN~inputclkctrl_INCLK_bus\ [1] $end
$var wire 1 E! \EN~inputclkctrl_INCLK_bus\ [0] $end
$var wire 1 F! \CLK~inputclkctrl_INCLK_bus\ [3] $end
$var wire 1 G! \CLK~inputclkctrl_INCLK_bus\ [2] $end
$var wire 1 H! \CLK~inputclkctrl_INCLK_bus\ [1] $end
$var wire 1 I! \CLK~inputclkctrl_INCLK_bus\ [0] $end
$var wire 1 J! \ADD_R1[0]~input_o\ $end
$var wire 1 K! \ADD_R2[0]~input_o\ $end
$var wire 1 L! \ADD_R1[1]~input_o\ $end
$var wire 1 M! \ADD_R2[1]~input_o\ $end
$var wire 1 N! \DIN[0]~output_o\ $end
$var wire 1 O! \DIN[1]~output_o\ $end
$var wire 1 P! \DIN[2]~output_o\ $end
$var wire 1 Q! \DIN[3]~output_o\ $end
$var wire 1 R! \DIN[4]~output_o\ $end
$var wire 1 S! \DIN[5]~output_o\ $end
$var wire 1 T! \DIN[6]~output_o\ $end
$var wire 1 U! \DIN[7]~output_o\ $end
$var wire 1 V! \DIN[8]~output_o\ $end
$var wire 1 W! \DIN[9]~output_o\ $end
$var wire 1 X! \DIN[10]~output_o\ $end
$var wire 1 Y! \DIN[11]~output_o\ $end
$var wire 1 Z! \DIN[12]~output_o\ $end
$var wire 1 [! \DIN[13]~output_o\ $end
$var wire 1 \! \DIN[14]~output_o\ $end
$var wire 1 ]! \DIN[15]~output_o\ $end
$var wire 1 ^! \DOUT1[0]~output_o\ $end
$var wire 1 _! \DOUT1[1]~output_o\ $end
$var wire 1 `! \DOUT1[2]~output_o\ $end
$var wire 1 a! \DOUT1[3]~output_o\ $end
$var wire 1 b! \DOUT1[4]~output_o\ $end
$var wire 1 c! \DOUT1[5]~output_o\ $end
$var wire 1 d! \DOUT1[6]~output_o\ $end
$var wire 1 e! \DOUT1[7]~output_o\ $end
$var wire 1 f! \DOUT1[8]~output_o\ $end
$var wire 1 g! \DOUT1[9]~output_o\ $end
$var wire 1 h! \DOUT1[10]~output_o\ $end
$var wire 1 i! \DOUT1[11]~output_o\ $end
$var wire 1 j! \DOUT1[12]~output_o\ $end
$var wire 1 k! \DOUT1[13]~output_o\ $end
$var wire 1 l! \DOUT1[14]~output_o\ $end
$var wire 1 m! \DOUT1[15]~output_o\ $end
$var wire 1 n! \DOUT2[0]~output_o\ $end
$var wire 1 o! \DOUT2[1]~output_o\ $end
$var wire 1 p! \DOUT2[2]~output_o\ $end
$var wire 1 q! \DOUT2[3]~output_o\ $end
$var wire 1 r! \DOUT2[4]~output_o\ $end
$var wire 1 s! \DOUT2[5]~output_o\ $end
$var wire 1 t! \DOUT2[6]~output_o\ $end
$var wire 1 u! \DOUT2[7]~output_o\ $end
$var wire 1 v! \DOUT2[8]~output_o\ $end
$var wire 1 w! \DOUT2[9]~output_o\ $end
$var wire 1 x! \DOUT2[10]~output_o\ $end
$var wire 1 y! \DOUT2[11]~output_o\ $end
$var wire 1 z! \DOUT2[12]~output_o\ $end
$var wire 1 {! \DOUT2[13]~output_o\ $end
$var wire 1 |! \DOUT2[14]~output_o\ $end
$var wire 1 }! \DOUT2[15]~output_o\ $end
$var wire 1 ~! \EN~input_o\ $end
$var wire 1 !" \EN~inputclkctrl_outclk\ $end
$var wire 1 "" \ADD_W[1]~input_o\ $end
$var wire 1 #" \ADD_W[2]~input_o\ $end
$var wire 1 $" \ADD_W[0]~input_o\ $end
$var wire 1 %" \DECO|Q[0]~0_combout\ $end
$var wire 1 &" \DIN[0]~reg0_q\ $end
$var wire 1 '" \DECO|Q[1]~1_combout\ $end
$var wire 1 (" \DIN[1]~reg0_q\ $end
$var wire 1 )" \DECO|Q[2]~2_combout\ $end
$var wire 1 *" \DIN[2]~reg0_q\ $end
$var wire 1 +" \DECO|Q[0]~3_combout\ $end
$var wire 1 ," \DIN[3]~reg0_q\ $end
$var wire 1 -" \ADD_R1[2]~input_o\ $end
$var wire 1 ." \CLK~input_o\ $end
$var wire 1 /" \CLK~inputclkctrl_outclk\ $end
$var wire 1 0" \MUX1|G9|Y[0]~0_combout\ $end
$var wire 1 1" \MUX1|G9|Y[1]~1_combout\ $end
$var wire 1 2" \MUX1|G9|Y[2]~2_combout\ $end
$var wire 1 3" \MUX1|G9|Y[3]~3_combout\ $end
$var wire 1 4" \ADD_R2[2]~input_o\ $end
$var wire 1 5" \MUX2|G9|Y[0]~0_combout\ $end
$var wire 1 6" \MUX2|G9|Y[1]~1_combout\ $end
$var wire 1 7" \MUX2|G9|Y[2]~2_combout\ $end
$var wire 1 8" \MUX2|G9|Y[3]~3_combout\ $end
$var wire 1 9" \REGI1|Q\ [7] $end
$var wire 1 :" \REGI1|Q\ [6] $end
$var wire 1 ;" \REGI1|Q\ [5] $end
$var wire 1 <" \REGI1|Q\ [4] $end
$var wire 1 =" \REGI1|Q\ [3] $end
$var wire 1 >" \REGI1|Q\ [2] $end
$var wire 1 ?" \REGI1|Q\ [1] $end
$var wire 1 @" \REGI1|Q\ [0] $end
$upscope $end
$upscope $end
$enddefinitions $end
#0
$dumpvars
0*
1[
0\
1]
x^
1_
1`
1a
1b
1c
1d
1~
0!!
0J!
0K!
0L!
0M!
0N!
0O!
0P!
0Q!
0R!
0S!
0T!
0U!
0V!
0W!
0X!
0Y!
0Z!
0[!
0\!
0]!
0^!
0_!
0`!
0a!
0b!
0c!
0d!
0e!
0f!
0g!
0h!
0i!
0j!
0k!
0l!
0m!
0n!
0o!
0p!
0q!
0r!
0s!
0t!
0u!
0v!
0w!
0x!
0y!
0z!
0{!
0|!
0}!
1~!
1!"
0""
0#"
0$"
1%"
0&"
0'"
0("
0)"
0*"
0+"
0,"
0-"
0."
0/"
00"
01"
02"
03"
04"
05"
06"
07"
08"
0K
0L
0M
0N
0O
0P
0Q
0R
0S
0T
0U
0V
0W
0X
0Y
0Z
0!
0"
0#
0$
0%
0&
0'
0(
0)
0+
0,
0-
0.
0/
00
01
02
03
04
05
06
07
08
09
0:
0e
0f
0g
0h
0i
0j
0k
0l
0m
0n
0o
0p
0q
0r
0s
0t
0u
0v
0w
0x
0y
0z
0{
0|
0}
0"!
0#!
0$!
0%!
0&!
0'!
0(!
0)!
0*!
0+!
0,!
0-!
0.!
0/!
00!
01!
02!
03!
04!
05!
06!
07!
08!
09!
0:!
0;!
0<!
0=!
0>!
0?!
0@!
0A!
x9"
x:"
x;"
x<"
0="
0>"
0?"
0@"
1B!
1C!
1D!
1E!
1F!
1G!
1H!
0I!
0;
0<
0=
0>
0?
0@
0A
0B
0C
0D
0E
0F
0G
0H
0I
0J
$end
#10000
1*
1!!
1."
1I!
1/"
#20000
0*
0!!
0."
0I!
0/"
#30000
1*
1!!
1."
1I!
1/"
#40000
0*
0!!
0."
0I!
0/"
#50000
1*
1!!
1."
1I!
1/"
#60000
0*
0!!
0."
0I!
0/"
#70000
1*
1!!
1."
1I!
1/"
#80000
0*
0!!
0."
0I!
0/"
#90000
1*
1!!
1."
1I!
1/"
#100000
0*
0!!
0."
0I!
0/"
#110000
1*
1!!
1."
1I!
1/"
#120000
0*
0!!
0."
0I!
0/"
#130000
1*
1!!
1."
1I!
1/"
#140000
0*
0!!
0."
0I!
0/"
#150000
1*
1!!
1."
1I!
1/"
#160000
0*
0!!
0."
0I!
0/"
#170000
1*
1!!
1."
1I!
1/"
#180000
0*
0!!
0."
0I!
0/"
#190000
1*
1!!
1."
1I!
1/"
#200000
0*
0!!
0."
0I!
0/"
#210000
1*
1!!
1."
1I!
1/"
#220000
0*
0!!
0."
0I!
0/"
#230000
1*
1!!
1."
1I!
1/"
#240000
0*
0!!
0."
0I!
0/"
#250000
1*
1!!
1."
1I!
1/"
#260000
0*
0!!
0."
0I!
0/"
#270000
1*
1!!
1."
1I!
1/"
#280000
0*
0!!
0."
0I!
0/"
#290000
1*
1!!
1."
1I!
1/"
#300000
0*
0!!
0."
0I!
0/"
#310000
1*
1!!
1."
1I!
1/"
#320000
0*
0!!
0."
0I!
0/"
#330000
1*
1!!
1."
1I!
1/"
#340000
0*
0!!
0."
0I!
0/"
#350000
1*
1!!
1."
1I!
1/"
#360000
0*
0!!
0."
0I!
0/"
#370000
1*
1!!
1."
1I!
1/"
#380000
0*
0!!
0."
0I!
0/"
#390000
1*
1!!
1."
1I!
1/"
#400000
0*
0!!
0."
0I!
0/"
#410000
1*
1!!
1."
1I!
1/"
#420000
0*
0!!
0."
0I!
0/"
#430000
1*
1!!
1."
1I!
1/"
#440000
0*
0!!
0."
0I!
0/"
#450000
1*
1!!
1."
1I!
1/"
#460000
0*
0!!
0."
0I!
0/"
#470000
1*
1!!
1."
1I!
1/"
#480000
0*
0!!
0."
0I!
0/"
#490000
1*
1!!
1."
1I!
1/"
#500000
0*
0!!
0."
0I!
0/"
#510000
1*
1!!
1."
1I!
1/"
#520000
0*
0!!
0."
0I!
0/"
#530000
1*
1!!
1."
1I!
1/"
#540000
0*
0!!
0."
0I!
0/"
#550000
1*
1!!
1."
1I!
1/"
#560000
0*
0!!
0."
0I!
0/"
#570000
1*
1!!
1."
1I!
1/"
#580000
0*
0!!
0."
0I!
0/"
#590000
1*
1!!
1."
1I!
1/"
#600000
0*
0!!
0."
0I!
0/"
#610000
1*
1!!
1."
1I!
1/"
#620000
0*
0!!
0."
0I!
0/"
#630000
1*
1!!
1."
1I!
1/"
#640000
0*
0!!
0."
0I!
0/"
#650000
1*
1!!
1."
1I!
1/"
#660000
0*
0!!
0."
0I!
0/"
#670000
1*
1!!
1."
1I!
1/"
#680000
0*
0!!
0."
0I!
0/"
#690000
1*
1!!
1."
1I!
1/"
#700000
0*
0!!
0."
0I!
0/"
#710000
1*
1!!
1."
1I!
1/"
#720000
0*
0!!
0."
0I!
0/"
#730000
1*
1!!
1."
1I!
1/"
#740000
0*
0!!
0."
0I!
0/"
#750000
1*
1!!
1."
1I!
1/"
#760000
0*
0!!
0."
0I!
0/"
#770000
1*
1!!
1."
1I!
1/"
#780000
0*
0!!
0."
0I!
0/"
#790000
1*
1!!
1."
1I!
1/"
#800000
0*
0!!
0."
0I!
0/"
#810000
1*
1!!
1."
1I!
1/"
#820000
0*
0!!
0."
0I!
0/"
#830000
1*
1!!
1."
1I!
1/"
#840000
0*
0!!
0."
0I!
0/"
#850000
1*
1!!
1."
1I!
1/"
#860000
0*
0!!
0."
0I!
0/"
#870000
1*
1!!
1."
1I!
1/"
#880000
0*
0!!
0."
0I!
0/"
#890000
1*
1!!
1."
1I!
1/"
#900000
0*
0!!
0."
0I!
0/"
#910000
1*
1!!
1."
1I!
1/"
#920000
0*
0!!
0."
0I!
0/"
#930000
1*
1!!
1."
1I!
1/"
#940000
0*
0!!
0."
0I!
0/"
#950000
1*
1!!
1."
1I!
1/"
#960000
0*
0!!
0."
0I!
0/"
#970000
1*
1!!
1."
1I!
1/"
#980000
0*
0!!
0."
0I!
0/"
#990000
1*
1!!
1."
1I!
1/"
