Lab 0/Lab0_DCD3x8/simulation/qsim/DCD3X8.msim.vcd
$comment
	File created using the following command:
		vcd file DCD3X8.msim.vcd -direction
$end
$date
	Tue Jan 24 15:28:33 2023
$end
$version
	ModelSim Version 10.5b
$end
$timescale
	1ps
$end

$scope module dcd3x8_vhd_vec_tst $end
$var wire 1 ! Q [7] $end
$var wire 1 " Q [6] $end
$var wire 1 # Q [5] $end
$var wire 1 $ Q [4] $end
$var wire 1 % Q [3] $end
$var wire 1 & Q [2] $end
$var wire 1 ' Q [1] $end
$var wire 1 ( Q [0] $end
$var wire 1 ) S [2] $end
$var wire 1 * S [1] $end
$var wire 1 + S [0] $end

$scope module i1 $end
$var wire 1 , gnd $end
$var wire 1 - vcc $end
$var wire 1 . unknown $end
$var wire 1 / devoe $end
$var wire 1 0 devclrn $end
$var wire 1 1 devpor $end
$var wire 1 2 ww_devoe $end
$var wire 1 3 ww_devclrn $end
$var wire 1 4 ww_devpor $end
$var wire 1 5 ww_S [2] $end
$var wire 1 6 ww_S [1] $end
$var wire 1 7 ww_S [0] $end
$var wire 1 8 ww_Q [7] $end
$var wire 1 9 ww_Q [6] $end
$var wire 1 : ww_Q [5] $end
$var wire 1 ; ww_Q [4] $end
$var wire 1 < ww_Q [3] $end
$var wire 1 = ww_Q [2] $end
$var wire 1 > ww_Q [1] $end
$var wire 1 ? ww_Q [0] $end
$var wire 1 @ \Q[0]~output_o\ $end
$var wire 1 A \Q[1]~output_o\ $end
$var wire 1 B \Q[2]~output_o\ $end
$var wire 1 C \Q[3]~output_o\ $end
$var wire 1 D \Q[4]~output_o\ $end
$var wire 1 E \Q[5]~output_o\ $end
$var wire 1 F \Q[6]~output_o\ $end
$var wire 1 G \Q[7]~output_o\ $end
$var wire 1 H \S[2]~input_o\ $end
$var wire 1 I \S[0]~input_o\ $end
$var wire 1 J \S[1]~input_o\ $end
$var wire 1 K \Q[0]~0_combout\ $end
$var wire 1 L \Q[1]~1_combout\ $end
$var wire 1 M \Q[2]~2_combout\ $end
$var wire 1 N \Q[0]~3_combout\ $end
$var wire 1 O \ALT_INV_Q[1]~1_combout\ $end
$upscope $end
$upscope $end
$enddefinitions $end
#0
$dumpvars
0,
1-
x.
1/
10
11
12
13
14
0@
0A
0B
0C
0D
0E
0F
0G
xH
xI
xJ
xK
xL
xM
xN
xO
0)
0*
0+
0!
0"
0#
0$
0%
0&
0'
0(
05
06
07
08
09
0:
0;
0<
0=
0>
0?
$end
#776
0I
#786
0H
#806
0J
#3233
x@
x?
x(
#3574
xA
x>
x'
#3618
xB
x=
x&
#3621
xC
x<
x%
#3979
0N
#3994
1L
0O
#3996
1K
#4314
0M
#7229
1@
1?
1(
#7560
0C
0<
0%
#7593
0A
0>
0'
#7892
0B
0=
0&
#10000
1+
17
#10670
1I
#13884
0K
#13893
0L
1O
#17082
0@
0?
0(
#17439
1A
1>
1'
#20000
0+
1*
07
16
#20700
1J
#20776
0I
#23630
1M
1L
0O
#24185
0M
#24232
1K
#24267
0L
1O
#27229
0A
0>
0'
#27248
1B
1=
1&
#27465
1@
1?
1(
#27763
0B
0=
0&
#27813
1A
1>
1'
#30000
1+
17
#30670
1I
#33810
1M
#33884
0K
#33891
1L
0O
#37082
0@
0?
0(
#37428
1B
1=
1&
#37490
0A
0>
0'
#40000
0+
0*
1)
07
06
15
#40680
1H
#40776
0I
#40806
0J
#43877
1N
#43915
1K
#43944
0M
#43979
0N
#43994
1M
#47148
1@
1?
1(
#47498
1C
1<
1%
#47522
0B
0=
0&
#47560
0C
0<
0%
#47612
1B
1=
1&
#50000
1+
17
#50670
1I
#53893
0L
1O
#57439
1A
1>
1'
#60000
0+
1*
07
16
#60700
1J
#60776
0I
#63614
0M
#63630
1L
0O
#63631
1N
#64258
0K
#67192
0B
0=
0&
#67229
0A
0>
0'
#67252
1C
1<
1%
#67456
0@
0?
0(
#70000
1+
17
#70670
1I
#73858
1K
#77091
1@
1?
1(
#80000
0+
0*
0)
07
06
05
#80776
0I
#80786
0H
#80806
0J
#83979
0N
#83994
1M
#84314
0M
#87560
0C
0<
0%
#87612
1B
1=
1&
#87892
0B
0=
0&
#90000
1+
17
#90670
1I
#93884
0K
#93893
0L
1O
#97082
0@
0?
0(
#97439
1A
1>
1'
#100000
0+
1*
07
16
#100700
1J
#100776
0I
#103630
1M
1L
0O
#104185
0M
#104232
1K
#104267
0L
1O
#107229
0A
0>
0'
#107248
1B
1=
1&
#107465
1@
1?
1(
#107763
0B
0=
0&
#107813
1A
1>
1'
#110000
1+
17
#110670
1I
#113810
1M
#113884
0K
#113891
1L
0O
#117082
0@
0?
0(
#117428
1B
1=
1&
#117490
0A
0>
0'
#120000
0+
0*
1)
07
06
15
#120680
1H
#120776
0I
#120806
0J
#123877
1N
#123915
1K
#123944
0M
#123979
0N
#123994
1M
#127148
1@
1?
1(
#127498
1C
1<
1%
#127522
0B
0=
0&
#127560
0C
0<
0%
#127612
1B
1=
1&
#130000
1+
17
#130670
1I
#133893
0L
1O
#137439
1A
1>
1'
#140000
0+
1*
07
16
#140700
1J
#140776
0I
#143614
0M
#143630
1L
0O
#143631
1N
#144258
0K
#147192
0B
0=
0&
#147229
0A
0>
0'
#147252
1C
1<
1%
#147456
0@
0?
0(
#150000
1+
17
#150670
1I
#153858
1K
#157091
1@
1?
1(
#160000
0+
0*
0)
07
06
05
#160776
0I
#160786
0H
#160806
0J
#163979
0N
#163994
1M
#164314
0M
#167560
0C
0<
0%
#167612
1B
1=
1&
#167892
0B
0=
0&
#170000
1+
17
#170670
1I
#173884
0K
#173893
0L
1O
#177082
0@
0?
0(
#177439
1A
1>
1'
#180000
0+
1*
07
16
#180700
1J
#180776
0I
#183630
1M
1L
0O
#184185
0M
#184232
1K
#184267
0L
1O
#187229
0A
0>
0'
#187248
1B
1=
1&
#187465
1@
1?
1(
#187763
0B
0=
0&
#187813
1A
1>
1'
#190000
1+
17
#190670
1I
#193810
1M
#193884
0K
#193891
1L
0O
#197082
0@
0?
0(
#197428
1B
1=
1&
#197490
0A
0>
0'
#200000
0+
0*
1)
07
06
15
#200680
1H
#200776
0I
#200806
0J
#203877
1N
#203915
1K
#203944
0M
#203979
0N
#203994
1M
#207148
1@
1?
1(
#207498
1C
1<
1%
#207522
0B
0=
0&
#207560
0C
0<
0%
#207612
1B
1=
1&
#210000
1+
17
#210670
1I
#213893
0L
1O
#217439
1A
1>
1'
#220000
0+
1*
07
16
#220700
1J
#220776
0I
#223614
0M
#223630
1L
0O
#223631
1N
#224258
0K
#227192
0B
0=
0&
#227229
0A
0>
0'
#227252
1C
1<
1%
#227456
0@
0?
0(
#230000
1+
17
#230670
1I
#233858
1K
#237091
1@
1?
1(
#240000
0+
0*
0)
07
06
05
#240776
0I
#240786
0H
#240806
0J
#243979
0N
#243994
1M
#244314
0M
#247560
0C
0<
0%
#247612
1B
1=
1&
#247892
0B
0=
0&
#250000
1+
17
#250670
1I
#253884
0K
#253893
0L
1O
#257082
0@
0?
0(
#257439
1A
1>
1'
#260000
0+
1*
07
16
#260700
1J
#260776
0I
#263630
1M
1L
0O
#264185
0M
#264232
1K
#264267
0L
1O
#267229
0A
0>
0'
#267248
1B
1=
1&
#267465
1@
1?
1(
#267763
0B
0=
0&
#267813
1A
1>
1'
#270000
1+
17
#270670
1I
#273810
1M
#273884
0K
#273891
1L
0O
#277082
0@
0?
0(
#277428
1B
1=
1&
#277490
0A
0>
0'
#280000
0+
0*
1)
07
06
15
#280680
1H
#280776
0I
#280806
0J
#283877
1N
#283915
1K
#283944
0M
#283979
0N
#283994
1M
#287148
1@
1?
1(
#287498
1C
1<
1%
#287522
0B
0=
0&
#287560
0C
0<
0%
#287612
1B
1=
1&
#290000
1+
17
#290670
1I
#293893
0L
1O
#297439
1A
1>
1'
#300000
0+
1*
07
16
#300700
1J
#300776
0I
#303614
0M
#303630
1L
0O
#303631
1N
#304258
0K
#307192
0B
0=
0&
#307229
0A
0>
0'
#307252
1C
1<
1%
#307456
0@
0?
0(
#310000
1+
17
#310670
1I
#313858
1K
#317091
1@
1?
1(
#320000
0+
0*
0)
07
06
05
#320776
0I
#320786
0H
#320806
0J
#323979
0N
#323994
1M
#324314
0M
#327560
0C
0<
0%
#327612
1B
1=
1&
#327892
0B
0=
0&
#330000
1+
17
#330670
1I
#333884
0K
#333893
0L
1O
#337082
0@
0?
0(
#337439
1A
1>
1'
#340000
0+
1*
07
16
#340700
1J
#340776
0I
#343630
1M
1L
0O
#344185
0M
#344232
1K
#344267
0L
1O
#347229
0A
0>
0'
#347248
1B
1=
1&
#347465
1@
1?
1(
#347763
0B
0=
0&
#347813
1A
1>
1'
#350000
1+
17
#350670
1I
#353810
1M
#353884
0K
#353891
1L
0O
#357082
0@
0?
0(
#357428
1B
1=
1&
#357490
0A
0>
0'
#360000
0+
0*
1)
07
06
15
#360680
1H
#360776
0I
#360806
0J
#363877
1N
#363915
1K
#363944
0M
#363979
0N
#363994
1M
#367148
1@
1?
1(
#367498
1C
1<
1%
#367522
0B
0=
0&
#367560
0C
0<
0%
#367612
1B
1=
1&
#370000
1+
17
#370670
1I
#373893
0L
1O
#377439
1A
1>
1'
#380000
0+
1*
07
16
#380700
1J
#380776
0I
#383614
0M
#383630
1L
0O
#383631
1N
#384258
0K
#387192
0B
0=
0&
#387229
0A
0>
0'
#387252
1C
1<
1%
#387456
0@
0?
0(
#390000
1+
17
#390670
1I
#393858
1K
#397091
1@
1?
1(
#400000
0+
0*
0)
07
06
05
#400776
0I
#400786
0H
#400806
0J
#403979
0N
#403994
1M
#404314
0M
#407560
0C
0<
0%
#407612
1B
1=
1&
#407892
0B
0=
0&
#410000
1+
17
#410670
1I
#413884
0K
#413893
0L
1O
#417082
0@
0?
0(
#417439
1A
1>
1'
#420000
0+
1*
07
16
#420700
1J
#420776
0I
#423630
1M
1L
0O
#424185
0M
#424232
1K
#424267
0L
1O
#427229
0A
0>
0'
#427248
1B
1=
1&
#427465
1@
1?
1(
#427763
0B
0=
0&
#427813
1A
1>
1'
#430000
1+
17
#430670
1I
#433810
1M
#433884
0K
#433891
1L
0O
#437082
0@
0?
0(
#437428
1B
1=
1&
#437490
0A
0>
0'
#440000
0+
0*
1)
07
06
15
#440680
1H
#440776
0I
#440806
0J
#443877
1N
#443915
1K
#443944
0M
#443979
0N
#443994
1M
#447148
1@
1?
1(
#447498
1C
1<
1%
#447522
0B
0=
0&
#447560
0C
0<
0%
#447612
1B
1=
1&
#450000
1+
17
#450670
1I
#453893
0L
1O
#457439
1A
1>
1'
#460000
0+
1*
07
16
#460700
1J
#460776
0I
#463614
0M
#463630
1L
0O
#463631
1N
#464258
0K
#467192
0B
0=
0&
#467229
0A
0>
0'
#467252
1C
1<
1%
#467456
0@
0?
0(
#470000
1+
17
#470670
1I
#473858
1K
#477091
1@
1?
1(
#480000
0+
0*
0)
07
06
05
#480776
0I
#480786
0H
#480806
0J
#483979
0N
#483994
1M
#484314
0M
#487560
0C
0<
0%
#487612
1B
1=
1&
#487892
0B
0=
0&
#490000
1+
17
#490670
1I
#493884
0K
#493893
0L
1O
#497082
0@
0?
0(
#497439
1A
1>
1'
#500000
0+
1*
07
16
#500700
1J
#500776
0I
#503630
1M
1L
0O
#504185
0M
#504232
1K
#504267
0L
1O
#507229
0A
0>
0'
#507248
1B
1=
1&
#507465
1@
1?
1(
#507763
0B
0=
0&
#507813
1A
1>
1'
#510000
1+
17
#510670
1I
#513810
1M
#513884
0K
#513891
1L
0O
#517082
0@
0?
0(
#517428
1B
1=
1&
#517490
0A
0>
0'
#520000
0+
0*
1)
07
06
15
#520680
1H
#520776
0I
#520806
0J
#523877
1N
#523915
1K
#523944
0M
#523979
0N
#523994
1M
#527148
1@
1?
1(
#527498
1C
1<
1%
#527522
0B
0=
0&
#527560
0C
0<
0%
#527612
1B
1=
1&
#530000
1+
17
#530670
1I
#533893
0L
1O
#537439
1A
1>
1'
#540000
0+
1*
07
16
#540700
1J
#540776
0I
#543614
0M
#543630
1L
0O
#543631
1N
#544258
0K
#547192
0B
0=
0&
#547229
0A
0>
0'
#547252
1C
1<
1%
#547456
0@
0?
0(
#550000
1+
17
#550670
1I
#553858
1K
#557091
1@
1?
1(
#560000
0+
0*
0)
07
06
05
#560776
0I
#560786
0H
#560806
0J
#563979
0N
#563994
1M
#564314
0M
#567560
0C
0<
0%
#567612
1B
1=
1&
#567892
0B
0=
0&
#570000
1+
17
#570670
1I
#573884
0K
#573893
0L
1O
#577082
0@
0?
0(
#577439
1A
1>
1'
#580000
0+
1*
07
16
#580700
1J
#580776
0I
#583630
1M
1L
0O
#584185
0M
#584232
1K
#584267
0L
1O
#587229
0A
0>
0'
#587248
1B
1=
1&
#587465
1@
1?
1(
#587763
0B
0=
0&
#587813
1A
1>
1'
#590000
1+
17
#590670
1I
#593810
1M
#593884
0K
#593891
1L
0O
#597082
0@
0?
0(
#597428
1B
1=
1&
#597490
0A
0>
0'
#600000
0+
0*
1)
07
06
15
#600680
1H
#600776
0I
#600806
0J
#603877
1N
#603915
1K
#603944
0M
#603979
0N
#603994
1M
#607148
1@
1?
1(
#607498
1C
1<
1%
#607522
0B
0=
0&
#607560
0C
0<
0%
#607612
1B
1=
1&
#610000
1+
17
#610670
1I
#613893
0L
1O
#617439
1A
1>
1'
#620000
0+
1*
07
16
#620700
1J
#620776
0I
#623614
0M
#623630
1L
0O
#623631
1N
#624258
0K
#627192
0B
0=
0&
#627229
0A
0>
0'
#627252
1C
1<
1%
#627456
0@
0?
0(
#630000
1+
17
#630670
1I
#633858
1K
#637091
1@
1?
1(
#640000
0+
0*
0)
07
06
05
#640776
0I
#640786
0H
#640806
0J
#643979
0N
#643994
1M
#644314
0M
#647560
0C
0<
0%
#647612
1B
1=
1&
#647892
0B
0=
0&
#650000
1+
17
#650670
1I
#653884
0K
#653893
0L
1O
#657082
0@
0?
0(
#657439
1A
1>
1'
#660000
0+
1*
07
16
#660700
1J
#660776
0I
#663630
1M
1L
0O
#664185
0M
#664232
1K
#664267
0L
1O
#667229
0A
0>
0'
#667248
1B
1=
1&
#667465
1@
1?
1(
#667763
0B
0=
0&
#667813
1A
1>
1'
#670000
1+
17
#670670
1I
#673810
1M
#673884
0K
#673891
1L
0O
#677082
0@
0?
0(
#677428
1B
1=
1&
#677490
0A
0>
0'
#680000
0+
0*
1)
07
06
15
#680680
1H
#680776
0I
#680806
0J
#683877
1N
#683915
1K
#683944
0M
#683979
0N
#683994
1M
#687148
1@
1?
1(
#687498
1C
1<
1%
#687522
0B
0=
0&
#687560
0C
0<
0%
#687612
1B
1=
1&
#690000
1+
17
#690670
1I
#693893
0L
1O
#697439
1A
1>
1'
#700000
0+
1*
07
16
#700700
1J
#700776
0I
#703614
0M
#703630
1L
0O
#703631
1N
#704258
0K
#707192
0B
0=
0&
#707229
0A
0>
0'
#707252
1C
1<
1%
#707456
0@
0?
0(
#710000
1+
17
#710670
1I
#713858
1K
#717091
1@
1?
1(
#720000
0+
0*
0)
07
06
05
#720776
0I
#720786
0H
#720806
0J
#723979
0N
#723994
1M
#724314
0M
#727560
0C
0<
0%
#727612
1B
1=
1&
#727892
0B
0=
0&
#730000
1+
17
#730670
1I
#733884
0K
#733893
0L
1O
#737082
0@
0?
0(
#737439
1A
1>
1'
#740000
0+
1*
07
16
#740700
1J
#740776
0I
#743630
1M
1L
0O
#744185
0M
#744232
1K
#744267
0L
1O
#747229
0A
0>
0'
#747248
1B
1=
1&
#747465
1@
1?
1(
#747763
0B
0=
0&
#747813
1A
1>
1'
#750000
1+
17
#750670
1I
#753810
1M
#753884
0K
#753891
1L
0O
#757082
0@
0?
0(
#757428
1B
1=
1&
#757490
0A
0>
0'
#760000
0+
0*
1)
07
06
15
#760680
1H
#760776
0I
#760806
0J
#763877
1N
#763915
1K
#763944
0M
#763979
0N
#763994
1M
#767148
1@
1?
1(
#767498
1C
1<
1%
#767522
0B
0=
0&
#767560
0C
0<
0%
#767612
1B
1=
1&
#770000
1+
17
#770670
1I
#773893
0L
1O
#777439
1A
1>
1'
#780000
0+
1*
07
16
#780700
1J
#780776
0I
#783614
0M
#783630
1L
0O
#783631
1N
#784258
0K
#787192
0B
0=
0&
#787229
0A
0>
0'
#787252
1C
1<
1%
#787456
0@
0?
0(
#790000
1+
17
#790670
1I
#793858
1K
#797091
1@
1?
1(
#800000
0+
0*
0)
07
06
05
#800776
0I
#800786
0H
#800806
0J
#803979
0N
#803994
1M
#804314
0M
#807560
0C
0<
0%
#807612
1B
1=
1&
#807892
0B
0=
0&
#810000
1+
17
#810670
1I
#813884
0K
#813893
0L
1O
#817082
0@
0?
0(
#817439
1A
1>
1'
#820000
0+
1*
07
16
#820700
1J
#820776
0I
#823630
1M
1L
0O
#824185
0M
#824232
1K
#824267
0L
1O
#827229
0A
0>
0'
#827248
1B
1=
1&
#827465
1@
1?
1(
#827763
0B
0=
0&
#827813
1A
1>
1'
#830000
1+
17
#830670
1I
#833810
1M
#833884
0K
#833891
1L
0O
#837082
0@
0?
0(
#837428
1B
1=
1&
#837490
0A
0>
0'
#840000
0+
0*
1)
07
06
15
#840680
1H
#840776
0I
#840806
0J
#843877
1N
#843915
1K
#843944
0M
#843979
0N
#843994
1M
#847148
1@
1?
1(
#847498
1C
1<
1%
#847522
0B
0=
0&
#847560
0C
0<
0%
#847612
1B
1=
1&
#850000
1+
17
#850670
1I
#853893
0L
1O
#857439
1A
1>
1'
#860000
0+
1*
07
16
#860700
1J
#860776
0I
#863614
0M
#863630
1L
0O
#863631
1N
#864258
0K
#867192
0B
0=
0&
#867229
0A
0>
0'
#867252
1C
1<
1%
#867456
0@
0?
0(
#870000
1+
17
#870670
1I
#873858
1K
#877091
1@
1?
1(
#880000
0+
0*
0)
07
06
05
#880776
0I
#880786
0H
#880806
0J
#883979
0N
#883994
1M
#884314
0M
#887560
0C
0<
0%
#887612
1B
1=
1&
#887892
0B
0=
0&
#890000
1+
17
#890670
1I
#893884
0K
#893893
0L
1O
#897082
0@
0?
0(
#897439
1A
1>
1'
#900000
0+
1*
07
16
#900700
1J
#900776
0I
#903630
1M
1L
0O
#904185
0M
#904232
1K
#904267
0L
1O
#907229
0A
0>
0'
#907248
1B
1=
1&
#907465
1@
1?
1(
#907763
0B
0=
0&
#907813
1A
1>
1'
#910000
1+
17
#910670
1I
#913810
1M
#913884
0K
#913891
1L
0O
#917082
0@
0?
0(
#917428
1B
1=
1&
#917490
0A
0>
0'
#920000
0+
0*
1)
07
06
15
#920680
1H
#920776
0I
#920806
0J
#923877
1N
#923915
1K
#923944
0M
#923979
0N
#923994
1M
#927148
1@
1?
1(
#927498
1C
1<
1%
#927522
0B
0=
0&
#927560
0C
0<
0%
#927612
1B
1=
1&
#930000
1+
17
#930670
1I
#933893
0L
1O
#937439
1A
1>
1'
#940000
0+
1*
07
16
#940700
1J
#940776
0I
#943614
0M
#943630
1L
0O
#943631
1N
#944258
0K
#947192
0B
0=
0&
#947229
0A
0>
0'
#947252
1C
1<
1%
#947456
0@
0?
0(
#950000
1+
17
#950670
1I
#953858
1K
#957091
1@
1?
1(
#960000
0+
0*
0)
07
06
05
#960776
0I
#960786
0H
#960806
0J
#963979
0N
#963994
1M
#964314
0M
#967560
0C
0<
0%
#967612
1B
1=
1&
#967892
0B
0=
0&
#970000
1+
17
#970670
1I
#973884
0K
#973893
0L
1O
#977082
0@
0?
0(
#977439
1A
1>
1'
#980000
0+
1*
07
16
#980700
1J
#980776
0I
#983630
1M
1L
0O
#984185
0M
#984232
1K
#984267
0L
1O
#987229
0A
0>
0'
#987248
1B
1=
1&
#987465
1@
1?
1(
#987763
0B
0=
0&
#987813
1A
1>
1'
#990000
1+
17
#990670
1I
#993810
1M
#993884
0K
#993891
1L
0O
#997082
0@
0?
0(
#997428
1B
1=
1&
#997490
0A
0>
0'
