Lab 0/Lab0_REG8/simulation/qsim/REG8_REG16.msim.vcd
$comment
	File created using the following command:
		vcd file REG8_REG16.msim.vcd -direction
$end
$date
	Tue Jan 24 15:25:26 2023
$end
$version
	ModelSim Version 10.5b
$end
$timescale
	1ps
$end

$scope module reg16_vhd_vec_tst $end
$var wire 1 ! CLK $end
$var wire 1 " D [15] $end
$var wire 1 # D [14] $end
$var wire 1 $ D [13] $end
$var wire 1 % D [12] $end
$var wire 1 & D [11] $end
$var wire 1 ' D [10] $end
$var wire 1 ( D [9] $end
$var wire 1 ) D [8] $end
$var wire 1 * D [7] $end
$var wire 1 + D [6] $end
$var wire 1 , D [5] $end
$var wire 1 - D [4] $end
$var wire 1 . D [3] $end
$var wire 1 / D [2] $end
$var wire 1 0 D [1] $end
$var wire 1 1 D [0] $end
$var wire 1 2 EN $end
$var wire 1 3 Q [15] $end
$var wire 1 4 Q [14] $end
$var wire 1 5 Q [13] $end
$var wire 1 6 Q [12] $end
$var wire 1 7 Q [11] $end
$var wire 1 8 Q [10] $end
$var wire 1 9 Q [9] $end
$var wire 1 : Q [8] $end
$var wire 1 ; Q [7] $end
$var wire 1 < Q [6] $end
$var wire 1 = Q [5] $end
$var wire 1 > Q [4] $end
$var wire 1 ? Q [3] $end
$var wire 1 @ Q [2] $end
$var wire 1 A Q [1] $end
$var wire 1 B Q [0] $end

$scope module i1 $end
$var wire 1 C gnd $end
$var wire 1 D vcc $end
$var wire 1 E unknown $end
$var wire 1 F devoe $end
$var wire 1 G devclrn $end
$var wire 1 H devpor $end
$var wire 1 I ww_devoe $end
$var wire 1 J ww_devclrn $end
$var wire 1 K ww_devpor $end
$var wire 1 L ww_D [15] $end
$var wire 1 M ww_D [14] $end
$var wire 1 N ww_D [13] $end
$var wire 1 O ww_D [12] $end
$var wire 1 P ww_D [11] $end
$var wire 1 Q ww_D [10] $end
$var wire 1 R ww_D [9] $end
$var wire 1 S ww_D [8] $end
$var wire 1 T ww_D [7] $end
$var wire 1 U ww_D [6] $end
$var wire 1 V ww_D [5] $end
$var wire 1 W ww_D [4] $end
$var wire 1 X ww_D [3] $end
$var wire 1 Y ww_D [2] $end
$var wire 1 Z ww_D [1] $end
$var wire 1 [ ww_D [0] $end
$var wire 1 \ ww_EN $end
$var wire 1 ] ww_CLK $end
$var wire 1 ^ ww_Q [15] $end
$var wire 1 _ ww_Q [14] $end
$var wire 1 ` ww_Q [13] $end
$var wire 1 a ww_Q [12] $end
$var wire 1 b ww_Q [11] $end
$var wire 1 c ww_Q [10] $end
$var wire 1 d ww_Q [9] $end
$var wire 1 e ww_Q [8] $end
$var wire 1 f ww_Q [7] $end
$var wire 1 g ww_Q [6] $end
$var wire 1 h ww_Q [5] $end
$var wire 1 i ww_Q [4] $end
$var wire 1 j ww_Q [3] $end
$var wire 1 k ww_Q [2] $end
$var wire 1 l ww_Q [1] $end
$var wire 1 m ww_Q [0] $end
$var wire 1 n \CLK~inputclkctrl_INCLK_bus\ [3] $end
$var wire 1 o \CLK~inputclkctrl_INCLK_bus\ [2] $end
$var wire 1 p \CLK~inputclkctrl_INCLK_bus\ [1] $end
$var wire 1 q \CLK~inputclkctrl_INCLK_bus\ [0] $end
$var wire 1 r \Q[0]~output_o\ $end
$var wire 1 s \Q[1]~output_o\ $end
$var wire 1 t \Q[2]~output_o\ $end
$var wire 1 u \Q[3]~output_o\ $end
$var wire 1 v \Q[4]~output_o\ $end
$var wire 1 w \Q[5]~output_o\ $end
$var wire 1 x \Q[6]~output_o\ $end
$var wire 1 y \Q[7]~output_o\ $end
$var wire 1 z \Q[8]~output_o\ $end
$var wire 1 { \Q[9]~output_o\ $end
$var wire 1 | \Q[10]~output_o\ $end
$var wire 1 } \Q[11]~output_o\ $end
$var wire 1 ~ \Q[12]~output_o\ $end
$var wire 1 !! \Q[13]~output_o\ $end
$var wire 1 "! \Q[14]~output_o\ $end
$var wire 1 #! \Q[15]~output_o\ $end
$var wire 1 $! \CLK~input_o\ $end
$var wire 1 %! \CLK~inputclkctrl_outclk\ $end
$var wire 1 &! \D[0]~input_o\ $end
$var wire 1 '! \R1|Q[0]~feeder_combout\ $end
$var wire 1 (! \EN~input_o\ $end
$var wire 1 )! \D[1]~input_o\ $end
$var wire 1 *! \D[2]~input_o\ $end
$var wire 1 +! \R1|Q[2]~feeder_combout\ $end
$var wire 1 ,! \D[3]~input_o\ $end
$var wire 1 -! \R1|Q[3]~feeder_combout\ $end
$var wire 1 .! \D[4]~input_o\ $end
$var wire 1 /! \R1|Q[4]~feeder_combout\ $end
$var wire 1 0! \D[5]~input_o\ $end
$var wire 1 1! \D[6]~input_o\ $end
$var wire 1 2! \D[7]~input_o\ $end
$var wire 1 3! \R1|Q[7]~feeder_combout\ $end
$var wire 1 4! \D[8]~input_o\ $end
$var wire 1 5! \R2|Q[0]~feeder_combout\ $end
$var wire 1 6! \D[9]~input_o\ $end
$var wire 1 7! \R2|Q[1]~feeder_combout\ $end
$var wire 1 8! \D[10]~input_o\ $end
$var wire 1 9! \D[11]~input_o\ $end
$var wire 1 :! \R2|Q[3]~feeder_combout\ $end
$var wire 1 ;! \D[12]~input_o\ $end
$var wire 1 <! \R2|Q[4]~feeder_combout\ $end
$var wire 1 =! \D[13]~input_o\ $end
$var wire 1 >! \R2|Q[5]~feeder_combout\ $end
$var wire 1 ?! \D[14]~input_o\ $end
$var wire 1 @! \R2|Q[6]~feeder_combout\ $end
$var wire 1 A! \D[15]~input_o\ $end
$var wire 1 B! \R2|Q[7]~feeder_combout\ $end
$var wire 1 C! \R1|Q\ [7] $end
$var wire 1 D! \R1|Q\ [6] $end
$var wire 1 E! \R1|Q\ [5] $end
$var wire 1 F! \R1|Q\ [4] $end
$var wire 1 G! \R1|Q\ [3] $end
$var wire 1 H! \R1|Q\ [2] $end
$var wire 1 I! \R1|Q\ [1] $end
$var wire 1 J! \R1|Q\ [0] $end
$var wire 1 K! \R2|Q\ [7] $end
$var wire 1 L! \R2|Q\ [6] $end
$var wire 1 M! \R2|Q\ [5] $end
$var wire 1 N! \R2|Q\ [4] $end
$var wire 1 O! \R2|Q\ [3] $end
$var wire 1 P! \R2|Q\ [2] $end
$var wire 1 Q! \R2|Q\ [1] $end
$var wire 1 R! \R2|Q\ [0] $end
$upscope $end
$upscope $end
$enddefinitions $end
#0
$dumpvars
0!
02
0C
1D
xE
1F
1G
1H
1I
1J
1K
0\
0]
0r
0s
0t
0u
0v
0w
0x
0y
0z
0{
0|
0}
0~
0!!
0"!
0#!
x$!
x%!
x&!
x'!
x(!
x)!
x*!
x+!
x,!
x-!
x.!
x/!
x0!
x1!
x2!
x3!
x4!
x5!
x6!
x7!
x8!
x9!
x:!
x;!
x<!
x=!
x>!
x?!
x@!
xA!
xB!
0"
0#
0$
0%
0&
0'
0(
0)
0*
0+
0,
0-
0.
0/
00
01
03
04
05
06
07
08
09
0:
0;
0<
0=
0>
0?
0@
0A
0B
0L
0M
0N
0O
0P
0Q
0R
0S
0T
0U
0V
0W
0X
0Y
0Z
0[
0^
0_
0`
0a
0b
0c
0d
0e
0f
0g
0h
0i
0j
0k
0l
0m
0C!
0D!
0E!
0F!
0G!
0H!
0I!
0J!
0K!
0L!
0M!
0N!
0O!
0P!
0Q!
0R!
1n
1o
1p
xq
$end
#745
0)!
0?!
0A!
#755
0,!
#765
0.!
#766
0&!
0;!
#775
0*!
04!
08!
0=!
#785
01!
02!
#786
0(!
#805
09!
#815
00!
06!
#836
0$!
0q
#1009
0%!
#3907
0<!
#3911
0'!
#4192
0>!
#4208
03!
#4214
0:!
#4237
0+!
#4608
0B!
#4630
0@!
#4646
0-!
#4673
05!
#4691
07!
#4757
0/!
#5000
12
1\
#5680
1(!
#10000
11
1!
1[
1]
#10660
1&!
#10730
1$!
1q
#10917
1%!
#13569
1'!
#15000
02
0\
#15786
0(!
#20000
01
0!
10
0[
1Z
0]
#20639
1)!
#20766
0&!
#20836
0$!
0q
#21009
0%!
#23911
0'!
#25000
12
1\
#25680
1(!
#30000
11
1!
1[
1]
#30660
1&!
#30730
1$!
1q
#30917
1%!
#33333
1I!
#33569
1'!
#35000
02
0\
#35786
0(!
#36957
1s
1l
1A
#40000
12
01
0!
00
1/
1\
0[
0Z
1Y
0]
#40669
1*!
#40680
1(!
#40745
0)!
#40766
0&!
#40836
0$!
0q
#41009
0%!
#43891
1+!
#43911
0'!
#50000
11
1!
1[
1]
#50660
1&!
#50730
1$!
1q
#50917
1%!
#53333
0I!
#53336
1H!
#53569
1'!
#56942
0s
0l
0A
#57005
1t
1k
1@
#60000
01
0!
10
0[
1Z
0]
#60639
1)!
#60766
0&!
#60836
0$!
0q
#61009
0%!
#63911
0'!
#70000
11
1!
1[
1]
#70660
1&!
#70730
1$!
1q
#70917
1%!
#73333
1I!
#73569
1'!
#76957
1s
1l
1A
#80000
01
0!
00
02
0/
1.
0[
0Z
0Y
1X
0]
0\
#80649
1,!
#80745
0)!
#80766
0&!
#80775
0*!
#80786
0(!
#80836
0$!
0q
#81009
0%!
#83911
0'!
#84237
0+!
#84335
1-!
#85000
12
1\
#85680
1(!
#90000
02
11
1!
0\
1[
1]
#90660
1&!
#90730
1$!
1q
#90786
0(!
#90917
1%!
#93333
1G!
0I!
#93336
0H!
#93569
1'!
#96942
0s
0l
0A
#97016
0t
0k
0@
#97400
1u
1j
1?
#100000
12
01
0!
10
1\
0[
1Z
0]
#100639
1)!
#100680
1(!
#100766
0&!
#100836
0$!
0q
#101009
0%!
#103911
0'!
#110000
11
1!
1[
1]
#110660
1&!
#110730
1$!
1q
#110917
1%!
#113333
1I!
#113569
1'!
#116957
1s
1l
1A
#120000
01
0!
00
1/
0[
0Z
1Y
0]
#120669
1*!
#120745
0)!
#120766
0&!
#120836
0$!
0q
#121009
0%!
#123891
1+!
#123911
0'!
#125000
02
0\
#125786
0(!
#130000
12
11
1!
1\
1[
1]
#130660
1&!
#130680
1(!
#130730
1$!
1q
#130917
1%!
#133569
1'!
#140000
02
01
0!
10
0\
0[
1Z
0]
#140639
1)!
#140766
0&!
#140786
0(!
#140836
0$!
0q
#141009
0%!
#143911
0'!
#150000
12
11
1!
1\
1[
1]
#150660
1&!
#150680
1(!
#150730
1$!
1q
#150917
1%!
#153569
1'!
#160000
01
0!
00
0/
0.
1-
0[
0Z
0Y
0X
1W
0]
#160659
1.!
#160745
0)!
#160755
0,!
#160766
0&!
#160775
0*!
#160836
0$!
0q
#161009
0%!
#163911
0'!
#164237
0+!
#164406
1/!
#164646
0-!
#165000
02
0\
#165786
0(!
#170000
11
1!
1[
1]
#170660
1&!
#170730
1$!
1q
#170917
1%!
#173569
1'!
#175000
12
1\
#175680
1(!
#180000
01
0!
10
0[
1Z
0]
#180639
1)!
#180766
0&!
#180836
0$!
0q
#181009
0%!
#183911
0'!
#190000
11
1!
02
1[
1]
0\
#190660
1&!
#190730
1$!
1q
#190786
0(!
#190917
1%!
#193333
1F!
0G!
#193569
1'!
#197331
0u
0j
0?
#197420
1v
1i
1>
#200000
01
0!
00
1/
0[
0Z
1Y
0]
#200669
1*!
#200745
0)!
#200766
0&!
#200836
0$!
0q
#201009
0%!
#203891
1+!
#203911
0'!
#210000
11
1!
1[
1]
#210660
1&!
#210730
1$!
1q
#210917
1%!
#213569
1'!
#215000
12
1\
#215680
1(!
#220000
02
01
0!
10
0\
0[
1Z
0]
#220639
1)!
#220766
0&!
#220786
0(!
#220836
0$!
0q
#221009
0%!
#223911
0'!
#230000
12
11
1!
1\
1[
1]
#230660
1&!
#230680
1(!
#230730
1$!
1q
#230917
1%!
#233569
1'!
#235000
02
0\
#235786
0(!
#240000
01
0!
00
0/
1.
0[
0Z
0Y
1X
0]
#240649
1,!
#240745
0)!
#240766
0&!
#240775
0*!
#240836
0$!
0q
#241009
0%!
#243911
0'!
#244237
0+!
#244335
1-!
#245000
12
1\
#245680
1(!
#250000
02
11
1!
0\
1[
1]
#250660
1&!
#250730
1$!
1q
#250786
0(!
#250917
1%!
#253333
1G!
0I!
#253569
1'!
#255000
12
1\
#255680
1(!
#256942
0s
0l
0A
#257400
1u
1j
1?
#260000
02
01
0!
10
0\
0[
1Z
0]
#260639
1)!
#260766
0&!
#260786
0(!
#260836
0$!
0q
#261009
0%!
#263911
0'!
#270000
11
1!
1[
1]
#270660
1&!
#270730
1$!
1q
#270917
1%!
#273569
1'!
#275000
12
1\
#275680
1(!
#280000
01
0!
00
1/
0[
0Z
1Y
0]
#280669
1*!
#280745
0)!
#280766
0&!
#280836
0$!
0q
#281009
0%!
#283891
1+!
#283911
0'!
#285000
02
0\
#285786
0(!
#290000
11
1!
1[
1]
#290660
1&!
#290730
1$!
1q
#290917
1%!
#293569
1'!
#295000
12
1\
#295680
1(!
#300000
02
01
0!
10
0\
0[
1Z
0]
#300639
1)!
#300766
0&!
#300786
0(!
#300836
0$!
0q
#301009
0%!
#303911
0'!
#310000
11
1!
1[
1]
#310660
1&!
#310730
1$!
1q
#310917
1%!
#313569
1'!
#320000
01
0!
00
0/
0.
0-
1,
0[
0Z
0Y
0X
0W
1V
0]
#320709
10!
#320745
0)!
#320755
0,!
#320765
0.!
#320766
0&!
#320775
0*!
#320836
0$!
0q
#321009
0%!
#323911
0'!
#324237
0+!
#324646
0-!
#324757
0/!
#330000
11
1!
12
1[
1]
1\
#330660
1&!
#330680
1(!
#330730
1$!
1q
#330917
1%!
#333569
1'!
#340000
01
0!
10
0[
1Z
0]
#340639
1)!
#340766
0&!
#340836
0$!
0q
#341009
0%!
#343911
0'!
#350000
11
1!
02
1[
1]
0\
#350660
1&!
#350730
1$!
1q
#350786
0(!
#350917
1%!
#353333
1E!
0F!
0G!
1I!
#353569
1'!
#356957
1s
1l
1A
#357331
0u
0j
0?
#357351
0v
0i
0>
#357411
1w
1h
1=
#360000
01
0!
00
1/
0[
0Z
1Y
0]
#360669
1*!
#360745
0)!
#360766
0&!
#360836
0$!
0q
#361009
0%!
#363891
1+!
#363911
0'!
#370000
11
1!
12
1[
1]
1\
#370660
1&!
#370680
1(!
#370730
1$!
1q
#370917
1%!
#373569
1'!
#375000
02
0\
#375786
0(!
#380000
01
0!
10
0[
1Z
0]
#380639
1)!
#380766
0&!
#380836
0$!
0q
#381009
0%!
#383911
0'!
#390000
11
1!
1[
1]
#390660
1&!
#390730
1$!
1q
#390917
1%!
#393569
1'!
#400000
01
0!
00
12
0/
1.
0[
0Z
0Y
1X
0]
1\
#400649
1,!
#400680
1(!
#400745
0)!
#400766
0&!
#400775
0*!
#400836
0$!
0q
#401009
0%!
#403911
0'!
#404237
0+!
#404335
1-!
#410000
11
1!
1[
1]
#410660
1&!
#410730
1$!
1q
#410917
1%!
#413333
1G!
0I!
#413569
1'!
#416942
0s
0l
0A
#417400
1u
1j
1?
#420000
01
0!
10
02
0[
1Z
0]
0\
#420639
1)!
#420766
0&!
#420786
0(!
#420836
0$!
0q
#421009
0%!
#423911
0'!
#425000
12
1\
#425680
1(!
#430000
02
11
1!
0\
1[
1]
#430660
1&!
#430730
1$!
1q
#430786
0(!
#430917
1%!
#433333
1I!
#433569
1'!
#435000
12
1\
#435680
1(!
#436957
1s
1l
1A
#440000
01
0!
00
1/
0[
0Z
1Y
0]
#440669
1*!
#440745
0)!
#440766
0&!
#440836
0$!
0q
#441009
0%!
#443891
1+!
#443911
0'!
#450000
11
1!
02
1[
1]
0\
#450660
1&!
#450730
1$!
1q
#450786
0(!
#450917
1%!
#453333
0I!
#453336
1H!
#453569
1'!
#456942
0s
0l
0A
#457005
1t
1k
1@
#460000
01
0!
12
10
0[
1Z
0]
1\
#460639
1)!
#460680
1(!
#460766
0&!
#460836
0$!
0q
#461009
0%!
#463911
0'!
#470000
11
1!
1[
1]
#470660
1&!
#470730
1$!
1q
#470917
1%!
#473333
1I!
#473569
1'!
#476957
1s
1l
1A
#480000
01
0!
00
0/
0.
1-
0[
0Z
0Y
0X
1W
0]
#480659
1.!
#480745
0)!
#480755
0,!
#480766
0&!
#480775
0*!
#480836
0$!
0q
#481009
0%!
#483911
0'!
#484237
0+!
#484406
1/!
#484646
0-!
#490000
11
1!
1[
1]
#490660
1&!
#490730
1$!
1q
#490917
1%!
#493333
1F!
0G!
0I!
#493336
0H!
#493569
1'!
#495000
02
0\
#495786
0(!
#496942
0s
0l
0A
#497016
0t
0k
0@
#497331
0u
0j
0?
#497420
1v
1i
1>
#500000
12
01
0!
10
1\
0[
1Z
0]
#500639
1)!
#500680
1(!
#500766
0&!
#500836
0$!
0q
#501009
0%!
#503911
0'!
#510000
11
1!
1[
1]
#510660
1&!
#510730
1$!
1q
#510917
1%!
#513333
1I!
#513569
1'!
#515000
02
0\
#515786
0(!
#516957
1s
1l
1A
#520000
12
01
0!
00
1/
1\
0[
0Z
1Y
0]
#520669
1*!
#520680
1(!
#520745
0)!
#520766
0&!
#520836
0$!
0q
#521009
0%!
#523891
1+!
#523911
0'!
#525000
02
0\
#525786
0(!
#530000
12
11
1!
1\
1[
1]
#530660
1&!
#530680
1(!
#530730
1$!
1q
#530917
1%!
#533569
1'!
#535000
02
0\
#535786
0(!
#540000
12
01
0!
10
1\
0[
1Z
0]
#540639
1)!
#540680
1(!
#540766
0&!
#540836
0$!
0q
#541009
0%!
#543911
0'!
#545000
02
0\
#545786
0(!
#550000
12
11
1!
1\
1[
1]
#550660
1&!
#550680
1(!
#550730
1$!
1q
#550917
1%!
#553569
1'!
#560000
01
0!
00
0/
1.
0[
0Z
0Y
1X
0]
#560649
1,!
#560745
0)!
#560766
0&!
#560775
0*!
#560836
0$!
0q
#561009
0%!
#563911
0'!
#564237
0+!
#564335
1-!
#565000
02
0\
#565786
0(!
#570000
11
1!
1[
1]
#570660
1&!
#570730
1$!
1q
#570917
1%!
#573569
1'!
#580000
01
0!
12
10
0[
1Z
0]
1\
#580639
1)!
#580680
1(!
#580766
0&!
#580836
0$!
0q
#581009
0%!
#583911
0'!
#590000
11
1!
02
1[
1]
0\
#590660
1&!
#590730
1$!
1q
#590786
0(!
#590917
1%!
#593333
1G!
#593569
1'!
#595000
12
1\
#595680
1(!
#597400
1u
1j
1?
#600000
02
01
0!
00
1/
0\
0[
0Z
1Y
0]
#600669
1*!
#600745
0)!
#600766
0&!
#600786
0(!
#600836
0$!
0q
#601009
0%!
#603891
1+!
#603911
0'!
#610000
11
1!
1[
1]
#610660
1&!
#610730
1$!
1q
#610917
1%!
#613569
1'!
#620000
01
0!
12
10
0[
1Z
0]
1\
#620639
1)!
#620680
1(!
#620766
0&!
#620836
0$!
0q
#621009
0%!
#623911
0'!
#630000
11
1!
02
1[
1]
0\
#630660
1&!
#630730
1$!
1q
#630786
0(!
#630917
1%!
#633336
1H!
#633569
1'!
#635000
12
1\
#635680
1(!
#637005
1t
1k
1@
#640000
02
01
0!
00
0/
0.
0-
0,
1+
0\
0[
0Z
0Y
0X
0W
0V
1U
0]
#640679
11!
#640745
0)!
#640755
0,!
#640765
0.!
#640766
0&!
#640775
0*!
#640786
0(!
#640815
00!
#640836
0$!
0q
#641009
0%!
#643911
0'!
#644237
0+!
#644646
0-!
#644757
0/!
#650000
11
1!
1[
1]
#650660
1&!
#650730
1$!
1q
#650917
1%!
#653569
1'!
#655000
12
1\
#655680
1(!
#660000
01
0!
10
0[
1Z
0]
#660639
1)!
#660766
0&!
#660836
0$!
0q
#661009
0%!
#663911
0'!
#665000
02
0\
#665786
0(!
#670000
11
1!
1[
1]
#670660
1&!
#670730
1$!
1q
#670917
1%!
#673569
1'!
#675000
12
1\
#675680
1(!
#680000
02
01
0!
00
1/
0\
0[
0Z
1Y
0]
#680669
1*!
#680745
0)!
#680766
0&!
#680786
0(!
#680836
0$!
0q
#681009
0%!
#683891
1+!
#683911
0'!
#690000
11
1!
1[
1]
#690660
1&!
#690730
1$!
1q
#690917
1%!
#693569
1'!
#695000
12
1\
#695680
1(!
#700000
02
01
0!
10
0\
0[
1Z
0]
#700639
1)!
#700766
0&!
#700786
0(!
#700836
0$!
0q
#701009
0%!
#703911
0'!
#705000
12
1\
#705680
1(!
#710000
11
1!
1[
1]
#710660
1&!
#710730
1$!
1q
#710917
1%!
#713333
1D!
0E!
0F!
0G!
#713569
1'!
#717142
1x
1g
1<
#717331
0u
0j
0?
#717344
0w
0h
0=
#717351
0v
0i
0>
#720000
01
0!
02
00
0/
1.
0[
0Z
0Y
1X
0]
0\
#720649
1,!
#720745
0)!
#720766
0&!
#720775
0*!
#720786
0(!
#720836
0$!
0q
#721009
0%!
#723911
0'!
#724237
0+!
#724335
1-!
#725000
12
1\
#725680
1(!
#730000
11
1!
1[
1]
#730660
1&!
#730730
1$!
1q
#730917
1%!
#733333
1G!
0I!
#733336
0H!
#733569
1'!
#736942
0s
0l
0A
#737016
0t
0k
0@
#737400
1u
1j
1?
#740000
01
0!
10
0[
1Z
0]
#740639
1)!
#740766
0&!
#740836
0$!
0q
#741009
0%!
#743911
0'!
#750000
11
1!
02
1[
1]
0\
#750660
1&!
#750730
1$!
1q
#750786
0(!
#750917
1%!
#753333
1I!
#753569
1'!
#756957
1s
1l
1A
#760000
01
0!
00
1/
0[
0Z
1Y
0]
#760669
1*!
#760745
0)!
#760766
0&!
#760836
0$!
0q
#761009
0%!
#763891
1+!
#763911
0'!
#765000
12
1\
#765680
1(!
#770000
11
1!
1[
1]
#770660
1&!
#770730
1$!
1q
#770917
1%!
#773333
0I!
#773336
1H!
#773569
1'!
#775000
02
0\
#775786
0(!
#776942
0s
0l
0A
#777005
1t
1k
1@
#780000
01
0!
10
0[
1Z
0]
#780639
1)!
#780766
0&!
#780836
0$!
0q
#781009
0%!
#783911
0'!
#785000
12
1\
#785680
1(!
#790000
02
11
1!
0\
1[
1]
#790660
1&!
#790730
1$!
1q
#790786
0(!
#790917
1%!
#793333
1I!
#793569
1'!
#795000
12
1\
#795680
1(!
#796957
1s
1l
1A
#800000
02
01
0!
00
0/
0.
1-
0\
0[
0Z
0Y
0X
1W
0]
#800659
1.!
#800745
0)!
#800755
0,!
#800766
0&!
#800775
0*!
#800786
0(!
#800836
0$!
0q
#801009
0%!
#803911
0'!
#804237
0+!
#804406
1/!
#804646
0-!
#805000
12
1\
#805680
1(!
#810000
11
1!
1[
1]
#810660
1&!
#810730
1$!
1q
#810917
1%!
#813333
1F!
0G!
0I!
#813336
0H!
#813569
1'!
#815000
02
0\
#815786
0(!
#816942
0s
0l
0A
#817016
0t
0k
0@
#817331
0u
0j
0?
#817420
1v
1i
1>
#820000
01
0!
10
0[
1Z
0]
#820639
1)!
#820766
0&!
#820836
0$!
0q
#821009
0%!
#823911
0'!
#830000
11
1!
1[
1]
#830660
1&!
#830730
1$!
1q
#830917
1%!
#833569
1'!
#835000
12
1\
#835680
1(!
#840000
01
0!
00
1/
0[
0Z
1Y
0]
#840669
1*!
#840745
0)!
#840766
0&!
#840836
0$!
0q
#841009
0%!
#843891
1+!
#843911
0'!
#850000
11
1!
02
1[
1]
0\
#850660
1&!
#850730
1$!
1q
#850786
0(!
#850917
1%!
#853336
1H!
#853569
1'!
#857005
1t
1k
1@
#860000
01
0!
10
0[
1Z
0]
#860639
1)!
#860766
0&!
#860836
0$!
0q
#861009
0%!
#863911
0'!
#865000
12
1\
#865680
1(!
#870000
11
1!
1[
1]
#870660
1&!
#870730
1$!
1q
#870917
1%!
#873333
1I!
#873569
1'!
#875000
02
0\
#875786
0(!
#876957
1s
1l
1A
#880000
12
01
0!
00
0/
1.
1\
0[
0Z
0Y
1X
0]
#880649
1,!
#880680
1(!
#880745
0)!
#880766
0&!
#880775
0*!
#880836
0$!
0q
#881009
0%!
#883911
0'!
#884237
0+!
#884335
1-!
#890000
11
1!
1[
1]
#890660
1&!
#890730
1$!
1q
#890917
1%!
#893333
1G!
0I!
#893336
0H!
#893569
1'!
#895000
02
0\
#895786
0(!
#896942
0s
0l
0A
#897016
0t
0k
0@
#897400
1u
1j
1?
#900000
12
01
0!
10
1\
0[
1Z
0]
#900639
1)!
#900680
1(!
#900766
0&!
#900836
0$!
0q
#901009
0%!
#903911
0'!
#910000
11
1!
1[
1]
#910660
1&!
#910730
1$!
1q
#910917
1%!
#913333
1I!
#913569
1'!
#916957
1s
1l
1A
#920000
01
0!
00
1/
0[
0Z
1Y
0]
#920669
1*!
#920745
0)!
#920766
0&!
#920836
0$!
0q
#921009
0%!
#923891
1+!
#923911
0'!
#930000
11
1!
1[
1]
#930660
1&!
#930730
1$!
1q
#930917
1%!
#933333
0I!
#933336
1H!
#933569
1'!
#935000
02
0\
#935786
0(!
#936942
0s
0l
0A
#937005
1t
1k
1@
#940000
01
0!
10
0[
1Z
0]
#940639
1)!
#940766
0&!
#940836
0$!
0q
#941009
0%!
#943911
0'!
#950000
11
1!
1[
1]
#950660
1&!
#950730
1$!
1q
#950917
1%!
#953569
1'!
#955000
12
1\
#955680
1(!
#960000
02
01
0!
00
0/
0.
0-
1,
0\
0[
0Z
0Y
0X
0W
1V
0]
#960709
10!
#960745
0)!
#960755
0,!
#960765
0.!
#960766
0&!
#960775
0*!
#960786
0(!
#960836
0$!
0q
#961009
0%!
#963911
0'!
#964237
0+!
#964646
0-!
#964757
0/!
#965000
12
1\
#965680
1(!
#970000
02
11
1!
0\
1[
1]
#970660
1&!
#970730
1$!
1q
#970786
0(!
#970917
1%!
#973333
1E!
0F!
0G!
#973336
0H!
#973569
1'!
#975000
12
1\
#975680
1(!
#977016
0t
0k
0@
#977331
0u
0j
0?
#977351
0v
0i
0>
#977411
1w
1h
1=
#980000
02
01
0!
10
0\
0[
1Z
0]
#980639
1)!
#980766
0&!
#980786
0(!
#980836
0$!
0q
#981009
0%!
#983911
0'!
#990000
11
1!
1[
1]
#990660
1&!
#990730
1$!
1q
#990917
1%!
#993569
1'!
