Lab 8/LAb8_vhdl/simulation/qsim/Lab8.msim.vcd
$comment
	File created using the following command:
		vcd file Lab8.msim.vcd -direction
$end
$date
	Wed Apr 26 12:39:58 2023
$end
$version
	ModelSim Version 10.5b
$end
$timescale
	1ps
$end

$scope module toplev_vhd_vec_tst $end
$var wire 1 ! ALU_SEL [2] $end
$var wire 1 " ALU_SEL [1] $end
$var wire 1 # ALU_SEL [0] $end
$var wire 1 $ CLK $end
$var wire 1 % INS [15] $end
$var wire 1 & INS [14] $end
$var wire 1 ' INS [13] $end
$var wire 1 ( INS [12] $end
$var wire 1 ) INS [11] $end
$var wire 1 * INS [10] $end
$var wire 1 + INS [9] $end
$var wire 1 , INS [8] $end
$var wire 1 - INS [7] $end
$var wire 1 . INS [6] $end
$var wire 1 / INS [5] $end
$var wire 1 0 INS [4] $end
$var wire 1 1 INS [3] $end
$var wire 1 2 INS [2] $end
$var wire 1 3 INS [1] $end
$var wire 1 4 INS [0] $end
$var wire 1 5 MEMOUT [15] $end
$var wire 1 6 MEMOUT [14] $end
$var wire 1 7 MEMOUT [13] $end
$var wire 1 8 MEMOUT [12] $end
$var wire 1 9 MEMOUT [11] $end
$var wire 1 : MEMOUT [10] $end
$var wire 1 ; MEMOUT [9] $end
$var wire 1 < MEMOUT [8] $end
$var wire 1 = MEMOUT [7] $end
$var wire 1 > MEMOUT [6] $end
$var wire 1 ? MEMOUT [5] $end
$var wire 1 @ MEMOUT [4] $end
$var wire 1 A MEMOUT [3] $end
$var wire 1 B MEMOUT [2] $end
$var wire 1 C MEMOUT [1] $end
$var wire 1 D MEMOUT [0] $end
$var wire 1 E PCOUT [15] $end
$var wire 1 F PCOUT [14] $end
$var wire 1 G PCOUT [13] $end
$var wire 1 H PCOUT [12] $end
$var wire 1 I PCOUT [11] $end
$var wire 1 J PCOUT [10] $end
$var wire 1 K PCOUT [9] $end
$var wire 1 L PCOUT [8] $end
$var wire 1 M PCOUT [7] $end
$var wire 1 N PCOUT [6] $end
$var wire 1 O PCOUT [5] $end
$var wire 1 P PCOUT [4] $end
$var wire 1 Q PCOUT [3] $end
$var wire 1 R PCOUT [2] $end
$var wire 1 S PCOUT [1] $end
$var wire 1 T PCOUT [0] $end
$var wire 1 U RST $end
$var wire 1 V RTDAT [15] $end
$var wire 1 W RTDAT [14] $end
$var wire 1 X RTDAT [13] $end
$var wire 1 Y RTDAT [12] $end
$var wire 1 Z RTDAT [11] $end
$var wire 1 [ RTDAT [10] $end
$var wire 1 \ RTDAT [9] $end
$var wire 1 ] RTDAT [8] $end
$var wire 1 ^ RTDAT [7] $end
$var wire 1 _ RTDAT [6] $end
$var wire 1 ` RTDAT [5] $end
$var wire 1 a RTDAT [4] $end
$var wire 1 b RTDAT [3] $end
$var wire 1 c RTDAT [2] $end
$var wire 1 d RTDAT [1] $end
$var wire 1 e RTDAT [0] $end
$var wire 1 f Z $end

$scope module i1 $end
$var wire 1 g gnd $end
$var wire 1 h vcc $end
$var wire 1 i unknown $end
$var wire 1 j devoe $end
$var wire 1 k devclrn $end
$var wire 1 l devpor $end
$var wire 1 m ww_devoe $end
$var wire 1 n ww_devclrn $end
$var wire 1 o ww_devpor $end
$var wire 1 p ww_Z $end
$var wire 1 q ww_INS [15] $end
$var wire 1 r ww_INS [14] $end
$var wire 1 s ww_INS [13] $end
$var wire 1 t ww_INS [12] $end
$var wire 1 u ww_INS [11] $end
$var wire 1 v ww_INS [10] $end
$var wire 1 w ww_INS [9] $end
$var wire 1 x ww_INS [8] $end
$var wire 1 y ww_INS [7] $end
$var wire 1 z ww_INS [6] $end
$var wire 1 { ww_INS [5] $end
$var wire 1 | ww_INS [4] $end
$var wire 1 } ww_INS [3] $end
$var wire 1 ~ ww_INS [2] $end
$var wire 1 !! ww_INS [1] $end
$var wire 1 "! ww_INS [0] $end
$var wire 1 #! ww_CLK $end
$var wire 1 $! ww_RST $end
$var wire 1 %! ww_ALU_SEL [2] $end
$var wire 1 &! ww_ALU_SEL [1] $end
$var wire 1 '! ww_ALU_SEL [0] $end
$var wire 1 (! ww_MEMOUT [15] $end
$var wire 1 )! ww_MEMOUT [14] $end
$var wire 1 *! ww_MEMOUT [13] $end
$var wire 1 +! ww_MEMOUT [12] $end
$var wire 1 ,! ww_MEMOUT [11] $end
$var wire 1 -! ww_MEMOUT [10] $end
$var wire 1 .! ww_MEMOUT [9] $end
$var wire 1 /! ww_MEMOUT [8] $end
$var wire 1 0! ww_MEMOUT [7] $end
$var wire 1 1! ww_MEMOUT [6] $end
$var wire 1 2! ww_MEMOUT [5] $end
$var wire 1 3! ww_MEMOUT [4] $end
$var wire 1 4! ww_MEMOUT [3] $end
$var wire 1 5! ww_MEMOUT [2] $end
$var wire 1 6! ww_MEMOUT [1] $end
$var wire 1 7! ww_MEMOUT [0] $end
$var wire 1 8! ww_RTDAT [15] $end
$var wire 1 9! ww_RTDAT [14] $end
$var wire 1 :! ww_RTDAT [13] $end
$var wire 1 ;! ww_RTDAT [12] $end
$var wire 1 <! ww_RTDAT [11] $end
$var wire 1 =! ww_RTDAT [10] $end
$var wire 1 >! ww_RTDAT [9] $end
$var wire 1 ?! ww_RTDAT [8] $end
$var wire 1 @! ww_RTDAT [7] $end
$var wire 1 A! ww_RTDAT [6] $end
$var wire 1 B! ww_RTDAT [5] $end
$var wire 1 C! ww_RTDAT [4] $end
$var wire 1 D! ww_RTDAT [3] $end
$var wire 1 E! ww_RTDAT [2] $end
$var wire 1 F! ww_RTDAT [1] $end
$var wire 1 G! ww_RTDAT [0] $end
$var wire 1 H! ww_PCOUT [15] $end
$var wire 1 I! ww_PCOUT [14] $end
$var wire 1 J! ww_PCOUT [13] $end
$var wire 1 K! ww_PCOUT [12] $end
$var wire 1 L! ww_PCOUT [11] $end
$var wire 1 M! ww_PCOUT [10] $end
$var wire 1 N! ww_PCOUT [9] $end
$var wire 1 O! ww_PCOUT [8] $end
$var wire 1 P! ww_PCOUT [7] $end
$var wire 1 Q! ww_PCOUT [6] $end
$var wire 1 R! ww_PCOUT [5] $end
$var wire 1 S! ww_PCOUT [4] $end
$var wire 1 T! ww_PCOUT [3] $end
$var wire 1 U! ww_PCOUT [2] $end
$var wire 1 V! ww_PCOUT [1] $end
$var wire 1 W! ww_PCOUT [0] $end
$var wire 1 X! \RST~inputclkctrl_INCLK_bus\ [3] $end
$var wire 1 Y! \RST~inputclkctrl_INCLK_bus\ [2] $end
$var wire 1 Z! \RST~inputclkctrl_INCLK_bus\ [1] $end
$var wire 1 [! \RST~inputclkctrl_INCLK_bus\ [0] $end
$var wire 1 \! \CLK~inputclkctrl_INCLK_bus\ [3] $end
$var wire 1 ]! \CLK~inputclkctrl_INCLK_bus\ [2] $end
$var wire 1 ^! \CLK~inputclkctrl_INCLK_bus\ [1] $end
$var wire 1 _! \CLK~inputclkctrl_INCLK_bus\ [0] $end
$var wire 1 `! \Z~output_o\ $end
$var wire 1 a! \INS[15]~output_o\ $end
$var wire 1 b! \INS[14]~output_o\ $end
$var wire 1 c! \INS[13]~output_o\ $end
$var wire 1 d! \INS[12]~output_o\ $end
$var wire 1 e! \INS[11]~output_o\ $end
$var wire 1 f! \INS[10]~output_o\ $end
$var wire 1 g! \INS[9]~output_o\ $end
$var wire 1 h! \INS[8]~output_o\ $end
$var wire 1 i! \INS[7]~output_o\ $end
$var wire 1 j! \INS[6]~output_o\ $end
$var wire 1 k! \INS[5]~output_o\ $end
$var wire 1 l! \INS[4]~output_o\ $end
$var wire 1 m! \INS[3]~output_o\ $end
$var wire 1 n! \INS[2]~output_o\ $end
$var wire 1 o! \INS[1]~output_o\ $end
$var wire 1 p! \INS[0]~output_o\ $end
$var wire 1 q! \ALU_SEL[2]~output_o\ $end
$var wire 1 r! \ALU_SEL[1]~output_o\ $end
$var wire 1 s! \ALU_SEL[0]~output_o\ $end
$var wire 1 t! \MEMOUT[15]~output_o\ $end
$var wire 1 u! \MEMOUT[14]~output_o\ $end
$var wire 1 v! \MEMOUT[13]~output_o\ $end
$var wire 1 w! \MEMOUT[12]~output_o\ $end
$var wire 1 x! \MEMOUT[11]~output_o\ $end
$var wire 1 y! \MEMOUT[10]~output_o\ $end
$var wire 1 z! \MEMOUT[9]~output_o\ $end
$var wire 1 {! \MEMOUT[8]~output_o\ $end
$var wire 1 |! \MEMOUT[7]~output_o\ $end
$var wire 1 }! \MEMOUT[6]~output_o\ $end
$var wire 1 ~! \MEMOUT[5]~output_o\ $end
$var wire 1 !" \MEMOUT[4]~output_o\ $end
$var wire 1 "" \MEMOUT[3]~output_o\ $end
$var wire 1 #" \MEMOUT[2]~output_o\ $end
$var wire 1 $" \MEMOUT[1]~output_o\ $end
$var wire 1 %" \MEMOUT[0]~output_o\ $end
$var wire 1 &" \RTDAT[15]~output_o\ $end
$var wire 1 '" \RTDAT[14]~output_o\ $end
$var wire 1 (" \RTDAT[13]~output_o\ $end
$var wire 1 )" \RTDAT[12]~output_o\ $end
$var wire 1 *" \RTDAT[11]~output_o\ $end
$var wire 1 +" \RTDAT[10]~output_o\ $end
$var wire 1 ," \RTDAT[9]~output_o\ $end
$var wire 1 -" \RTDAT[8]~output_o\ $end
$var wire 1 ." \RTDAT[7]~output_o\ $end
$var wire 1 /" \RTDAT[6]~output_o\ $end
$var wire 1 0" \RTDAT[5]~output_o\ $end
$var wire 1 1" \RTDAT[4]~output_o\ $end
$var wire 1 2" \RTDAT[3]~output_o\ $end
$var wire 1 3" \RTDAT[2]~output_o\ $end
$var wire 1 4" \RTDAT[1]~output_o\ $end
$var wire 1 5" \RTDAT[0]~output_o\ $end
$var wire 1 6" \PCOUT[15]~output_o\ $end
$var wire 1 7" \PCOUT[14]~output_o\ $end
$var wire 1 8" \PCOUT[13]~output_o\ $end
$var wire 1 9" \PCOUT[12]~output_o\ $end
$var wire 1 :" \PCOUT[11]~output_o\ $end
$var wire 1 ;" \PCOUT[10]~output_o\ $end
$var wire 1 <" \PCOUT[9]~output_o\ $end
$var wire 1 =" \PCOUT[8]~output_o\ $end
$var wire 1 >" \PCOUT[7]~output_o\ $end
$var wire 1 ?" \PCOUT[6]~output_o\ $end
$var wire 1 @" \PCOUT[5]~output_o\ $end
$var wire 1 A" \PCOUT[4]~output_o\ $end
$var wire 1 B" \PCOUT[3]~output_o\ $end
$var wire 1 C" \PCOUT[2]~output_o\ $end
$var wire 1 D" \PCOUT[1]~output_o\ $end
$var wire 1 E" \PCOUT[0]~output_o\ $end
$var wire 1 F" \CLK~input_o\ $end
$var wire 1 G" \CLK~inputclkctrl_outclk\ $end
$var wire 1 H" \inst3|inst7|OUTMUX[1]~16_combout\ $end
$var wire 1 I" \RST~input_o\ $end
$var wire 1 J" \RST~inputclkctrl_outclk\ $end
$var wire 1 K" \inst3|inst7|OUTMUX[3]~2_combout\ $end
$var wire 1 L" \inst3|inst7|OUTMUX[2]~4_combout\ $end
$var wire 1 M" \inst3|inst7|OUTMUX[4]~3_combout\ $end
$var wire 1 N" \inst3|inst9|IMEM~0_combout\ $end
$var wire 1 O" \inst3|inst9|IMEM~1_combout\ $end
$var wire 1 P" \inst3|inst9|IMEM~2_combout\ $end
$var wire 1 Q" \inst3|inst9|IMEM~3_combout\ $end
$var wire 1 R" \inst3|inst9|IMEM~4_combout\ $end
$var wire 1 S" \inst3|inst9|IMEM~5_combout\ $end
$var wire 1 T" \inst3|inst9|IMEM~6_combout\ $end
$var wire 1 U" \inst3|inst9|IMEM~7_combout\ $end
$var wire 1 V" \inst3|inst9|IMEM~8_combout\ $end
$var wire 1 W" \inst|Mux5~0_combout\ $end
$var wire 1 X" \inst4|inst1|MUX1|G9|Y[1]~0_combout\ $end
$var wire 1 Y" \inst1|DMEM~514_combout\ $end
$var wire 1 Z" \inst|Mux1~0_combout\ $end
$var wire 1 [" \inst1|DMEM~513_combout\ $end
$var wire 1 \" \inst4|inst1|REGI2|Q[4]~1_combout\ $end
$var wire 1 ]" \inst4|inst1|MUX1|G10|Y[0]~0_combout\ $end
$var wire 1 ^" \inst4|inst1|REGI2|Q[1]~0_combout\ $end
$var wire 1 _" \inst1|DMEM~512_combout\ $end
$var wire 1 `" \inst1|DMEM~515_combout\ $end
$var wire 1 a" \inst1|DMEM~516_combout\ $end
$var wire 1 b" \inst1|DMEM~517_combout\ $end
$var wire 1 c" \inst4|inst1|REGI2|Q[7]~2_combout\ $end
$var wire 1 d" \inst4|inst1|MUX2|G10|Y[3]~0_combout\ $end
$var wire 1 e" \inst4|inst1|MUX2|G10|Y[2]~1_combout\ $end
$var wire 1 f" \inst4|inst1|MUX2|G10|Y[1]~2_combout\ $end
$var wire 1 g" \inst4|inst1|MUX2|G10|Y[0]~3_combout\ $end
$var wire 1 h" \inst4|inst1|MUX2|G9|Y[2]~0_combout\ $end
$var wire 1 i" \inst4|inst1|MUX2|G9|Y[1]~1_combout\ $end
$var wire 1 j" \inst3|inst7|OUTMUX[5]~15_combout\ $end
$var wire 1 k" \inst3|inst7|OUTMUX[6]~14_combout\ $end
$var wire 1 l" \inst3|inst7|OUTMUX[7]~17_combout\ $end
$var wire 1 m" \inst3|inst1|A1|A2|OVERFLOW~0_combout\ $end
$var wire 1 n" \inst3|inst7|OUTMUX[8]~13_combout\ $end
$var wire 1 o" \inst3|inst7|OUTMUX[9]~11_combout\ $end
$var wire 1 p" \inst3|inst7|OUTMUX[9]~12_combout\ $end
$var wire 1 q" \inst3|inst7|OUTMUX[10]~10_combout\ $end
$var wire 1 r" \inst3|inst7|OUTMUX[11]~5_combout\ $end
$var wire 1 s" \inst3|inst7|OUTMUX[11]~6_combout\ $end
$var wire 1 t" \inst3|inst7|OUTMUX[11]~9_combout\ $end
$var wire 1 u" \inst3|inst7|OUTMUX[12]~7_combout\ $end
$var wire 1 v" \inst3|inst7|OUTMUX[12]~8_combout\ $end
$var wire 1 w" \inst3|inst1|A1|A4|s4~0_combout\ $end
$var wire 1 x" \inst3|inst|PCOUT\ [15] $end
$var wire 1 y" \inst3|inst|PCOUT\ [14] $end
$var wire 1 z" \inst3|inst|PCOUT\ [13] $end
$var wire 1 {" \inst3|inst|PCOUT\ [12] $end
$var wire 1 |" \inst3|inst|PCOUT\ [11] $end
$var wire 1 }" \inst3|inst|PCOUT\ [10] $end
$var wire 1 ~" \inst3|inst|PCOUT\ [9] $end
$var wire 1 !# \inst3|inst|PCOUT\ [8] $end
$var wire 1 "# \inst3|inst|PCOUT\ [7] $end
$var wire 1 ## \inst3|inst|PCOUT\ [6] $end
$var wire 1 $# \inst3|inst|PCOUT\ [5] $end
$var wire 1 %# \inst3|inst|PCOUT\ [4] $end
$var wire 1 &# \inst3|inst|PCOUT\ [3] $end
$var wire 1 '# \inst3|inst|PCOUT\ [2] $end
$var wire 1 (# \inst3|inst|PCOUT\ [1] $end
$var wire 1 )# \inst3|inst|PCOUT\ [0] $end
$var wire 1 *# \inst3|inst1|A1|A2|R\ [3] $end
$var wire 1 +# \inst3|inst1|A1|A2|R\ [2] $end
$var wire 1 ,# \inst3|inst1|A1|A2|R\ [1] $end
$var wire 1 -# \inst3|inst1|A1|A2|R\ [0] $end
$var wire 1 .# \inst3|inst1|A1|A4|R\ [3] $end
$var wire 1 /# \inst3|inst1|A1|A4|R\ [2] $end
$var wire 1 0# \inst3|inst1|A1|A4|R\ [1] $end
$var wire 1 1# \inst3|inst1|A1|A4|R\ [0] $end
$var wire 1 2# \inst4|inst1|REGI2|Q\ [7] $end
$var wire 1 3# \inst4|inst1|REGI2|Q\ [6] $end
$var wire 1 4# \inst4|inst1|REGI2|Q\ [5] $end
$var wire 1 5# \inst4|inst1|REGI2|Q\ [4] $end
$var wire 1 6# \inst4|inst1|REGI2|Q\ [3] $end
$var wire 1 7# \inst4|inst1|REGI2|Q\ [2] $end
$var wire 1 8# \inst4|inst1|REGI2|Q\ [1] $end
$var wire 1 9# \inst4|inst1|REGI2|Q\ [0] $end
$var wire 1 :# \inst3|inst1|A1|A2|s4\ [3] $end
$var wire 1 ;# \inst3|inst1|A1|A2|s4\ [2] $end
$var wire 1 <# \inst3|inst1|A1|A2|s4\ [1] $end
$var wire 1 =# \inst3|inst1|A1|A2|s4\ [0] $end
$var wire 1 ># \inst3|inst1|A1|A3|R\ [3] $end
$var wire 1 ?# \inst3|inst1|A1|A3|R\ [2] $end
$var wire 1 @# \inst3|inst1|A1|A3|R\ [1] $end
$var wire 1 A# \inst3|inst1|A1|A3|R\ [0] $end
$var wire 1 B# \ALT_INV_RST~inputclkctrl_outclk\ $end
$var wire 1 C# \inst1|ALT_INV_DMEM~516_combout\ $end
$var wire 1 D# \inst1|ALT_INV_DMEM~515_combout\ $end
$var wire 1 E# \inst1|ALT_INV_DMEM~513_combout\ $end
$var wire 1 F# \inst4|inst1|MUX1|G10|ALT_INV_Y[0]~0_combout\ $end
$var wire 1 G# \inst3|inst9|ALT_INV_IMEM~8_combout\ $end
$var wire 1 H# \inst3|inst9|ALT_INV_IMEM~6_combout\ $end
$var wire 1 I# \inst3|inst9|ALT_INV_IMEM~5_combout\ $end
$var wire 1 J# \inst3|inst9|ALT_INV_IMEM~2_combout\ $end
$upscope $end
$upscope $end
$enddefinitions $end
#0
$dumpvars
0$
0U
0f
0g
1h
xi
1j
1k
1l
1m
1n
1o
0p
0#!
0$!
0`!
0a!
0b!
0c!
0d!
0e!
0f!
1g!
0h!
1i!
0j!
0k!
0l!
0m!
0n!
1o!
0p!
0q!
0r!
0s!
1t!
1u!
0v!
0w!
0x!
0y!
0z!
0{!
1|!
0}!
1~!
1!"
0""
0#"
1$"
0%"
0&"
0'"
0("
0)"
0*"
0+"
0,"
0-"
0."
0/"
00"
01"
02"
03"
04"
05"
06"
07"
08"
09"
0:"
0;"
0<"
0="
0>"
0?"
0@"
0A"
0B"
0C"
0D"
0E"
0F"
0G"
1H"
0I"
0J"
0K"
0L"
0M"
0N"
0O"
1P"
0Q"
0R"
0S"
0T"
0U"
0V"
0W"
1X"
0Y"
1Z"
0["
1\"
0]"
1^"
1_"
1`"
0a"
0b"
1c"
0d"
0e"
0f"
0g"
0h"
0i"
0j"
0k"
0l"
0m"
0n"
1o"
0p"
0q"
0r"
0s"
0t"
0u"
0v"
1w"
1B#
1C#
0D#
1E#
1F#
1G#
1H#
1I#
0J#
0q
0r
0s
0t
0u
0v
1w
0x
1y
0z
0{
0|
0}
0~
1!!
0"!
0%!
0&!
0'!
1(!
1)!
0*!
0+!
0,!
0-!
0.!
0/!
10!
01!
12!
13!
04!
05!
16!
07!
08!
09!
0:!
0;!
0<!
0=!
0>!
0?!
0@!
0A!
0B!
0C!
0D!
0E!
0F!
0G!
0H!
0I!
0J!
0K!
0L!
0M!
0N!
0O!
0P!
0Q!
0R!
0S!
0T!
0U!
0V!
0W!
0x"
0y"
0z"
0{"
0|"
0}"
0~"
0!#
0"#
0##
0$#
0%#
0&#
0'#
0(#
x)#
1*#
x+#
x,#
x-#
0.#
0/#
00#
x1#
02#
03#
04#
05#
x6#
07#
08#
x9#
x:#
x;#
1<#
x=#
x>#
1?#
x@#
xA#
1\!
1]!
1^!
0_!
1X!
1Y!
1Z!
0[!
0!
0"
0#
0%
0&
0'
0(
0)
0*
1+
0,
1-
0.
0/
00
01
02
13
04
15
16
07
08
09
0:
0;
0<
1=
0>
1?
1@
0A
0B
1C
0D
0E
0F
0G
0H
0I
0J
0K
0L
0M
0N
0O
0P
0Q
0R
0S
0T
0V
0W
0X
0Y
0Z
0[
0\
0]
0^
0_
0`
0a
0b
0c
0d
0e
$end
#5000
1$
1#!
1F"
1_!
1G"
1(#
15#
18#
12#
14#
1f"
1d"
1Y"
0_"
0`"
1a"
1i"
1]"
1g"
0H"
1L"
0F#
0C#
1D#
0Y"
1["
0^"
1`"
0c"
1D"
0D#
0E#
0\"
1V!
11"
14"
0t!
0~!
1w!
1z!
1#"
1."
10"
1S
1y!
1{!
0|!
0$"
1C!
1F!
0(!
02!
1+!
1.!
15!
1@!
1B!
0w!
0z!
0#"
1-!
1/!
00!
06!
1d
1a
1`
1^
1B
0?
1;
18
05
0u!
0!"
0y!
0{!
0+!
0.!
05!
0C
0=
1<
1:
0)!
03!
0-!
0/!
0B
0;
08
0@
0<
0:
06
#10000
0$
0#!
0F"
0_!
0G"
#15000
1$
1#!
1F"
1_!
1G"
0(#
1'#
05#
08#
02#
04#
0P"
1Q"
1R"
1S"
1T"
1V"
0X"
0Z"
0]"
0d"
0f"
0g"
0i"
1v"
1K"
0L"
1F#
0G#
0H#
0I#
1J#
1^"
0o"
0["
1_"
0a"
1t"
1C"
0D"
1C#
1E#
1c"
1\"
1p"
1U!
0V!
04"
01"
00"
0."
1f!
1n!
1e!
0S
1R
1d!
1h!
0g!
0i!
0o!
1$"
0F!
0C!
0B!
0@!
1v
1~
1u
1t!
1~!
1t
1x
0w
0y
0!!
16!
0d
0a
0`
0^
12
1*
1)
1u!
1!"
1|!
1(!
12!
03
0-
1,
0+
1(
1C
1)!
13!
10!
1?
15
1@
1=
16
#20000
0$
0#!
0F"
0_!
0G"
#25000
1$
1#!
1F"
1_!
1G"
1&#
0'#
1~"
1|"
1{"
0Q"
0V"
1X"
0v"
1L"
1N"
1O"
0S"
1q"
1I#
1G#
19"
1:"
1<"
0C"
1B"
1K!
1L!
1N!
0U!
1T!
1b!
1a!
0e!
0R
1Q
1K
1I
1H
1o!
1g!
1r
1q
0u
1!!
1w
0)
1&
1%
13
1+
#30000
0$
0#!
0F"
0_!
0G"
#35000
1$
1#!
1F"
1_!
1G"
1'#
1}"
0{"
0?#
0K"
0L"
1M"
1Q"
0R"
0T"
1U"
1V"
0X"
1v"
0G#
1H#
1n"
0t"
09"
1;"
1C"
0K!
1M!
1U!
1m!
0f!
0n!
1e!
1R
1J
0H
1i!
0o!
1}
0v
0~
1u
1y
0!!
02
11
0*
1)
03
1-
#40000
0$
0#!
0F"
0_!
0G"
#45000
1$
1#!
1F"
1_!
1G"
0&#
0'#
1%#
1!#
0|"
1{"
0Q"
0v"
0M"
0N"
1P"
1S"
1T"
0U"
1W"
0p"
0q"
0H#
0I#
0J#
0n"
19"
0:"
1="
1A"
0C"
0B"
1K!
0L!
1O!
1S!
0U!
0T!
1q!
1r!
0m!
0a!
0e!
0R
0Q
1P
1L
0I
1H
0d!
0h!
0g!
0i!
1%!
1&!
0}
0q
0u
0t
0x
0w
0y
1"
1!
01
0)
0%
0-
0,
0+
0(
#50000
0$
0#!
0F"
0_!
0G"
#55000
1$
1#!
1F"
1_!
1G"
0%#
0!#
0~"
0}"
0{"
1?#
1H"
0O"
0S"
0T"
0V"
0W"
1X"
1Z"
1p"
1q"
1G#
1H#
1I#
1o"
0q"
09"
0;"
0<"
0="
0A"
0p"
0K!
0M!
0N!
0O!
0S!
0q!
0r!
0b!
0P
0L
0K
0J
0H
1g!
1i!
1o!
0%!
0&!
0r
1w
1y
1!!
0"
0!
0&
13
1-
1+
#60000
0$
0#!
0F"
0_!
0G"
#65000
1$
1#!
1F"
1_!
1G"
1(#
15#
18#
12#
14#
1f"
1d"
1Y"
0_"
0`"
1a"
1i"
1]"
1g"
0H"
1L"
0F#
0C#
1D#
0Y"
1["
0^"
1`"
0c"
1D"
0D#
0E#
0\"
1V!
11"
14"
0t!
0~!
1w!
1z!
1#"
1."
10"
1S
1y!
1{!
0|!
0$"
1C!
1F!
0(!
02!
1+!
1.!
15!
1@!
1B!
0w!
0z!
0#"
1-!
1/!
00!
06!
1d
1a
1`
1^
1B
0?
1;
18
05
0u!
0!"
0y!
0{!
0+!
0.!
05!
0C
0=
1<
1:
0)!
03!
0-!
0/!
0B
0;
08
0@
0<
0:
06
#70000
0$
0#!
0F"
0_!
0G"
#75000
1$
1#!
1F"
1_!
1G"
0(#
1'#
05#
08#
02#
04#
0P"
1Q"
1R"
1S"
1T"
1V"
0X"
0Z"
0]"
0d"
0f"
0g"
0i"
1v"
1K"
0L"
1F#
0G#
0H#
0I#
1J#
1^"
0o"
0["
1_"
0a"
1t"
1C"
0D"
1C#
1E#
1c"
1\"
1p"
1U!
0V!
04"
01"
00"
0."
1f!
1n!
1e!
0S
1R
1d!
1h!
0g!
0i!
0o!
1$"
0F!
0C!
0B!
0@!
1v
1~
1u
1t!
1~!
1t
1x
0w
0y
0!!
16!
0d
0a
0`
0^
12
1*
1)
1u!
1!"
1|!
1(!
12!
03
0-
1,
0+
1(
1C
1)!
13!
10!
1?
15
1@
1=
16
#80000
0$
0#!
0F"
0_!
0G"
#85000
1$
1#!
1F"
1_!
1G"
1&#
0'#
1~"
1|"
1{"
0Q"
0V"
1X"
0v"
1L"
1N"
1O"
0S"
1q"
1I#
1G#
19"
1:"
1<"
0C"
1B"
1K!
1L!
1N!
0U!
1T!
1b!
1a!
0e!
0R
1Q
1K
1I
1H
1o!
1g!
1r
1q
0u
1!!
1w
0)
1&
1%
13
1+
#90000
0$
0#!
0F"
0_!
0G"
#95000
1$
1#!
1F"
1_!
1G"
1'#
1}"
0{"
0?#
0K"
0L"
1M"
1Q"
0R"
0T"
1U"
1V"
0X"
1v"
0G#
1H#
1n"
0t"
09"
1;"
1C"
0K!
1M!
1U!
1m!
0f!
0n!
1e!
1R
1J
0H
1i!
0o!
1}
0v
0~
1u
1y
0!!
02
11
0*
1)
03
1-
#100000
0$
0#!
0F"
0_!
0G"
#105000
1$
1#!
1F"
1_!
1G"
0&#
0'#
1%#
1!#
0|"
1{"
0Q"
0v"
0M"
0N"
1P"
1S"
1T"
0U"
1W"
0p"
0q"
0H#
0I#
0J#
0n"
19"
0:"
1="
1A"
0C"
0B"
1K!
0L!
1O!
1S!
0U!
0T!
1q!
1r!
0m!
0a!
0e!
0R
0Q
1P
1L
0I
1H
0d!
0h!
0g!
0i!
1%!
1&!
0}
0q
0u
0t
0x
0w
0y
1"
1!
01
0)
0%
0-
0,
0+
0(
#110000
0$
0#!
0F"
0_!
0G"
#115000
1$
1#!
1F"
1_!
1G"
0%#
0!#
0~"
0}"
0{"
1?#
1H"
0O"
0S"
0T"
0V"
0W"
1X"
1Z"
1p"
1q"
1G#
1H#
1I#
1o"
0q"
09"
0;"
0<"
0="
0A"
0p"
0K!
0M!
0N!
0O!
0S!
0q!
0r!
0b!
0P
0L
0K
0J
0H
1g!
1i!
1o!
0%!
0&!
0r
1w
1y
1!!
0"
0!
0&
13
1-
1+
#120000
0$
0#!
0F"
0_!
0G"
#125000
1$
1#!
1F"
1_!
1G"
1(#
15#
18#
12#
14#
1f"
1d"
1Y"
0_"
0`"
1a"
1i"
1]"
1g"
0H"
1L"
0F#
0C#
1D#
0Y"
1["
0^"
1`"
0c"
1D"
0D#
0E#
0\"
1V!
11"
14"
0t!
0~!
1w!
1z!
1#"
1."
10"
1S
1y!
1{!
0|!
0$"
1C!
1F!
0(!
02!
1+!
1.!
15!
1@!
1B!
0w!
0z!
0#"
1-!
1/!
00!
06!
1d
1a
1`
1^
1B
0?
1;
18
05
0u!
0!"
0y!
0{!
0+!
0.!
05!
0C
0=
1<
1:
0)!
03!
0-!
0/!
0B
0;
08
0@
0<
0:
06
#130000
0$
0#!
0F"
0_!
0G"
#135000
1$
1#!
1F"
1_!
1G"
0(#
1'#
05#
08#
02#
04#
0P"
1Q"
1R"
1S"
1T"
1V"
0X"
0Z"
0]"
0d"
0f"
0g"
0i"
1v"
1K"
0L"
1F#
0G#
0H#
0I#
1J#
1^"
0o"
0["
1_"
0a"
1t"
1C"
0D"
1C#
1E#
1c"
1\"
1p"
1U!
0V!
04"
01"
00"
0."
1f!
1n!
1e!
0S
1R
1d!
1h!
0g!
0i!
0o!
1$"
0F!
0C!
0B!
0@!
1v
1~
1u
1t!
1~!
1t
1x
0w
0y
0!!
16!
0d
0a
0`
0^
12
1*
1)
1u!
1!"
1|!
1(!
12!
03
0-
1,
0+
1(
1C
1)!
13!
10!
1?
15
1@
1=
16
#140000
0$
0#!
0F"
0_!
0G"
#145000
1$
1#!
1F"
1_!
1G"
1&#
0'#
1~"
1|"
1{"
0Q"
0V"
1X"
0v"
1L"
1N"
1O"
0S"
1q"
1I#
1G#
19"
1:"
1<"
0C"
1B"
1K!
1L!
1N!
0U!
1T!
1b!
1a!
0e!
0R
1Q
1K
1I
1H
1o!
1g!
1r
1q
0u
1!!
1w
0)
1&
1%
13
1+
#150000
0$
0#!
0F"
0_!
0G"
#155000
1$
1#!
1F"
1_!
1G"
1'#
1}"
0{"
0?#
0K"
0L"
1M"
1Q"
0R"
0T"
1U"
1V"
0X"
1v"
0G#
1H#
1n"
0t"
09"
1;"
1C"
0K!
1M!
1U!
1m!
0f!
0n!
1e!
1R
1J
0H
1i!
0o!
1}
0v
0~
1u
1y
0!!
02
11
0*
1)
03
1-
#160000
0$
0#!
0F"
0_!
0G"
#165000
1$
1#!
1F"
1_!
1G"
0&#
0'#
1%#
1!#
0|"
1{"
0Q"
0v"
0M"
0N"
1P"
1S"
1T"
0U"
1W"
0p"
0q"
0H#
0I#
0J#
0n"
19"
0:"
1="
1A"
0C"
0B"
1K!
0L!
1O!
1S!
0U!
0T!
1q!
1r!
0m!
0a!
0e!
0R
0Q
1P
1L
0I
1H
0d!
0h!
0g!
0i!
1%!
1&!
0}
0q
0u
0t
0x
0w
0y
1"
1!
01
0)
0%
0-
0,
0+
0(
#170000
0$
0#!
0F"
0_!
0G"
#175000
1$
1#!
1F"
1_!
1G"
0%#
0!#
0~"
0}"
0{"
1?#
1H"
0O"
0S"
0T"
0V"
0W"
1X"
1Z"
1p"
1q"
1G#
1H#
1I#
1o"
0q"
09"
0;"
0<"
0="
0A"
0p"
0K!
0M!
0N!
0O!
0S!
0q!
0r!
0b!
0P
0L
0K
0J
0H
1g!
1i!
1o!
0%!
0&!
0r
1w
1y
1!!
0"
0!
0&
13
1-
1+
